solid interface_moving_inlet
 facet normal  1.000000e+00  0.000000e+00  0.000000e+00
   outer loop
     vertex  2.000000e-01 -1.188821e-01  3.862712e-02
     vertex  2.000000e-01 -1.234610e-01  1.955431e-02
     vertex  2.000000e-01 -1.108119e-01  3.440689e-02
   endloop
 endfacet
 facet normal  1.000000e+00  0.000000e+00  0.000000e+00
   outer loop
     vertex  2.000000e-01 -1.234610e-01  1.955431e-02
     vertex  2.000000e-01 -1.250000e-01  7.654042e-18
     vertex  2.000000e-01 -1.115640e-01  1.544132e-02
   endloop
 endfacet
 facet normal  1.000000e+00  0.000000e+00 -0.000000e+00
   outer loop
     vertex  2.000000e-01 -1.115640e-01  1.544132e-02
     vertex  2.000000e-01 -1.108119e-01  3.440689e-02
     vertex  2.000000e-01 -1.234610e-01  1.955431e-02
   endloop
 endfacet
 facet normal  1.000000e+00  0.000000e+00  0.000000e+00
   outer loop
     vertex  2.000000e-01 -1.098735e-01 -2.934273e-06
     vertex  2.000000e-01 -1.250000e-01  7.654042e-18
     vertex  2.000000e-01 -1.115658e-01 -1.544668e-02
   endloop
 endfacet
 facet normal  1.000000e+00  0.000000e+00 -0.000000e+00
   outer loop
     vertex  2.000000e-01 -1.188821e-01 -3.862712e-02
     vertex  2.000000e-01 -1.108161e-01 -3.441537e-02
     vertex  2.000000e-01 -1.234610e-01 -1.955431e-02
   endloop
 endfacet
 facet normal  1.000000e+00  0.000000e+00  0.000000e+00
   outer loop
     vertex  2.000000e-01 -1.115658e-01 -1.544668e-02
     vertex  2.000000e-01 -1.250000e-01  7.654042e-18
     vertex  2.000000e-01 -1.234610e-01 -1.955431e-02
   endloop
 endfacet
 facet normal  1.000000e+00  0.000000e+00 -0.000000e+00
   outer loop
     vertex  2.000000e-01 -1.113758e-01 -5.674881e-02
     vertex  2.000000e-01 -1.108161e-01 -3.441537e-02
     vertex  2.000000e-01 -1.188821e-01 -3.862712e-02
   endloop
 endfacet
 facet normal  1.000000e+00  0.000000e+00  0.000000e+00
   outer loop
     vertex  2.000000e-01 -1.115658e-01 -1.544668e-02
     vertex  2.000000e-01 -1.234610e-01 -1.955431e-02
     vertex  2.000000e-01 -1.108161e-01 -3.441537e-02
   endloop
 endfacet
 facet normal  1.000000e+00  0.000000e+00  0.000000e+00
   outer loop
     vertex  2.000000e-01 -1.098735e-01 -2.934273e-06
     vertex  2.000000e-01 -1.115640e-01  1.544132e-02
     vertex  2.000000e-01 -1.250000e-01  7.654042e-18
   endloop
 endfacet
 facet normal  1.000000e+00  0.000000e+00  0.000000e+00
   outer loop
     vertex  2.000000e-01 -1.830632e-02  9.325973e-02
     vertex  2.000000e-01 -1.954740e-02  1.096963e-01
     vertex  2.000000e-01 -3.446823e-02  1.018415e-01
   endloop
 endfacet
 facet normal  1.000000e+00 -0.000000e+00  0.000000e+00
   outer loop
     vertex  2.000000e-01 -4.548536e-02  1.073093e-01
     vertex  2.000000e-01 -3.446823e-02  1.018415e-01
     vertex  2.000000e-01 -3.862712e-02  1.188821e-01
   endloop
 endfacet
 facet normal  1.000000e+00  0.000000e+00 -0.000000e+00
   outer loop
     vertex  2.000000e-01 -1.954740e-02  1.096963e-01
     vertex  2.000000e-01 -5.836020e-03  1.150256e-01
     vertex  2.000000e-01 -1.955431e-02  1.234610e-01
   endloop
 endfacet
 facet normal  1.000000e+00  0.000000e+00  0.000000e+00
   outer loop
     vertex  2.000000e-01 -3.862712e-02  1.188821e-01
     vertex  2.000000e-01 -3.446823e-02  1.018415e-01
     vertex  2.000000e-01 -1.954740e-02  1.096963e-01
   endloop
 endfacet
 facet normal  1.000000e+00  0.000000e+00  0.000000e+00
   outer loop
     vertex  2.000000e-01 -1.954740e-02  1.096963e-01
     vertex  2.000000e-01 -1.955431e-02  1.234610e-01
     vertex  2.000000e-01 -3.862712e-02  1.188821e-01
   endloop
 endfacet
 facet normal  1.000000e+00 -0.000000e+00  0.000000e+00
   outer loop
     vertex  2.000000e-01 -1.955431e-02  1.234610e-01
     vertex  2.000000e-01 -5.836020e-03  1.150256e-01
     vertex  2.000000e-01  0.000000e+00  1.250000e-01
   endloop
 endfacet
 facet normal  1.000000e+00  0.000000e+00  0.000000e+00
   outer loop
     vertex  2.000000e-01  1.955431e-02  1.234610e-01
     vertex  2.000000e-01  0.000000e+00  1.250000e-01
     vertex  2.000000e-01  9.766441e-03  1.111488e-01
   endloop
 endfacet
 facet normal  1.000000e+00  0.000000e+00  0.000000e+00
   outer loop
     vertex  2.000000e-01 -1.966549e-03  8.423302e-02
     vertex  2.000000e-01 -3.174401e-03  1.016906e-01
     vertex  2.000000e-01 -1.830632e-02  9.325973e-02
   endloop
 endfacet
 facet normal  1.000000e+00 -0.000000e+00  0.000000e+00
   outer loop
     vertex  2.000000e-01 -5.836020e-03  1.150256e-01
     vertex  2.000000e-01  9.766441e-03  1.111488e-01
     vertex  2.000000e-01  0.000000e+00  1.250000e-01
   endloop
 endfacet
 facet normal  1.000000e+00  0.000000e+00  0.000000e+00
   outer loop
     vertex  2.000000e-01  1.360760e-02  9.377835e-02
     vertex  2.000000e-01  9.766441e-03  1.111488e-01
     vertex  2.000000e-01 -3.174401e-03  1.016906e-01
   endloop
 endfacet
 facet normal  1.000000e+00  0.000000e+00  0.000000e+00
   outer loop
     vertex  2.000000e-01  1.450531e-02  7.514511e-02
     vertex  2.000000e-01  1.360760e-02  9.377835e-02
     vertex  2.000000e-01 -1.966549e-03  8.423302e-02
   endloop
 endfacet
 facet normal  1.000000e+00  0.000000e+00  0.000000e+00
   outer loop
     vertex  2.000000e-01 -3.174401e-03  1.016906e-01
     vertex  2.000000e-01 -1.966549e-03  8.423302e-02
     vertex  2.000000e-01  1.360760e-02  9.377835e-02
   endloop
 endfacet
 facet normal  1.000000e+00  0.000000e+00  0.000000e+00
   outer loop
     vertex  2.000000e-01 -5.836020e-03  1.150256e-01
     vertex  2.000000e-01 -3.174401e-03  1.016906e-01
     vertex  2.000000e-01  9.766441e-03  1.111488e-01
   endloop
 endfacet
 facet normal  1.000000e+00  0.000000e+00  0.000000e+00
   outer loop
     vertex  2.000000e-01 -1.954740e-02  1.096963e-01
     vertex  2.000000e-01 -1.830632e-02  9.325973e-02
     vertex  2.000000e-01 -3.174401e-03  1.016906e-01
   endloop
 endfacet
 facet normal  1.000000e+00  0.000000e+00  0.000000e+00
   outer loop
     vertex  2.000000e-01 -3.174401e-03  1.016906e-01
     vertex  2.000000e-01 -5.836020e-03  1.150256e-01
     vertex  2.000000e-01 -1.954740e-02  1.096963e-01
   endloop
 endfacet
 facet normal  1.000000e+00 -0.000000e+00  0.000000e+00
   outer loop
     vertex  2.000000e-01 -5.674881e-02  1.113758e-01
     vertex  2.000000e-01 -4.548536e-02  1.073093e-01
     vertex  2.000000e-01 -3.862712e-02  1.188821e-01
   endloop
 endfacet
 facet normal  1.000000e+00  0.000000e+00  0.000000e+00
   outer loop
     vertex  2.000000e-01  3.086947e-02  6.582867e-02
     vertex  2.000000e-01  3.072806e-02  8.502822e-02
     vertex  2.000000e-01  1.450531e-02  7.514511e-02
   endloop
 endfacet
 facet normal  1.000000e+00  0.000000e+00 -0.000000e+00
   outer loop
     vertex  2.000000e-01  4.738230e-02  7.562832e-02
     vertex  2.000000e-01  4.774585e-02  9.562710e-02
     vertex  2.000000e-01  3.072806e-02  8.502822e-02
   endloop
 endfacet
 facet normal  1.000000e+00  0.000000e+00 -0.000000e+00
   outer loop
     vertex  2.000000e-01  4.717740e-02  5.638493e-02
     vertex  2.000000e-01  4.738230e-02  7.562832e-02
     vertex  2.000000e-01  3.086947e-02  6.582867e-02
   endloop
 endfacet
 facet normal  1.000000e+00  0.000000e+00  0.000000e+00
   outer loop
     vertex  2.000000e-01  3.072806e-02  8.502822e-02
     vertex  2.000000e-01  3.086947e-02  6.582867e-02
     vertex  2.000000e-01  4.738230e-02  7.562832e-02
   endloop
 endfacet
 facet normal  1.000000e+00  0.000000e+00  0.000000e+00
   outer loop
     vertex  2.000000e-01  6.441858e-02  8.573713e-02
     vertex  2.000000e-01  6.075068e-02  9.873743e-02
     vertex  2.000000e-01  4.774585e-02  9.562710e-02
   endloop
 endfacet
 facet normal  1.000000e+00  0.000000e+00  0.000000e+00
   outer loop
     vertex  2.000000e-01  8.109351e-02  7.445950e-02
     vertex  2.000000e-01  7.697012e-02  8.789133e-02
     vertex  2.000000e-01  6.441858e-02  8.573713e-02
   endloop
 endfacet
 facet normal  1.000000e+00  0.000000e+00  0.000000e+00
   outer loop
     vertex  2.000000e-01  5.674881e-02  1.113758e-01
     vertex  2.000000e-01  6.075068e-02  9.873743e-02
     vertex  2.000000e-01  7.347316e-02  1.011271e-01
   endloop
 endfacet
 facet normal  1.000000e+00 -0.000000e+00  0.000000e+00
   outer loop
     vertex  2.000000e-01  6.075068e-02  9.873743e-02
     vertex  2.000000e-01  6.441858e-02  8.573713e-02
     vertex  2.000000e-01  7.347316e-02  1.011271e-01
   endloop
 endfacet
 facet normal  1.000000e+00  0.000000e+00  0.000000e+00
   outer loop
     vertex  2.000000e-01  7.697012e-02  8.789133e-02
     vertex  2.000000e-01  7.347316e-02  1.011271e-01
     vertex  2.000000e-01  6.441858e-02  8.573713e-02
   endloop
 endfacet
 facet normal  1.000000e+00  0.000000e+00 -0.000000e+00
   outer loop
     vertex  2.000000e-01  6.337198e-02  4.688781e-02
     vertex  2.000000e-01  6.374059e-02  6.583356e-02
     vertex  2.000000e-01  4.717740e-02  5.638493e-02
   endloop
 endfacet
 facet normal  1.000000e+00  0.000000e+00 -0.000000e+00
   outer loop
     vertex  2.000000e-01  7.946000e-02  5.572616e-02
     vertex  2.000000e-01  8.109351e-02  7.445950e-02
     vertex  2.000000e-01  6.374059e-02  6.583356e-02
   endloop
 endfacet
 facet normal  1.000000e+00  0.000000e+00 -0.000000e+00
   outer loop
     vertex  2.000000e-01  7.937872e-02  3.744804e-02
     vertex  2.000000e-01  7.946000e-02  5.572616e-02
     vertex  2.000000e-01  6.337198e-02  4.688781e-02
   endloop
 endfacet
 facet normal  1.000000e+00  0.000000e+00  0.000000e+00
   outer loop
     vertex  2.000000e-01  6.374059e-02  6.583356e-02
     vertex  2.000000e-01  6.337198e-02  4.688781e-02
     vertex  2.000000e-01  7.946000e-02  5.572616e-02
   endloop
 endfacet
 facet normal  1.000000e+00  0.000000e+00  0.000000e+00
   outer loop
     vertex  2.000000e-01  6.441858e-02  8.573713e-02
     vertex  2.000000e-01  6.374059e-02  6.583356e-02
     vertex  2.000000e-01  8.109351e-02  7.445950e-02
   endloop
 endfacet
 facet normal  1.000000e+00  0.000000e+00  0.000000e+00
   outer loop
     vertex  2.000000e-01  4.738230e-02  7.562832e-02
     vertex  2.000000e-01  4.717740e-02  5.638493e-02
     vertex  2.000000e-01  6.374059e-02  6.583356e-02
   endloop
 endfacet
 facet normal  1.000000e+00  0.000000e+00  0.000000e+00
   outer loop
     vertex  2.000000e-01  4.774585e-02  9.562710e-02
     vertex  2.000000e-01  4.738230e-02  7.562832e-02
     vertex  2.000000e-01  6.441858e-02  8.573713e-02
   endloop
 endfacet
 facet normal  1.000000e+00  0.000000e+00 -0.000000e+00
   outer loop
     vertex  2.000000e-01  6.374059e-02  6.583356e-02
     vertex  2.000000e-01  6.441858e-02  8.573713e-02
     vertex  2.000000e-01  4.738230e-02  7.562832e-02
   endloop
 endfacet
 facet normal  1.000000e+00  0.000000e+00  0.000000e+00
   outer loop
     vertex  2.000000e-01  9.482173e-02  2.817526e-02
     vertex  2.000000e-01  9.470193e-02  4.647773e-02
     vertex  2.000000e-01  7.937872e-02  3.744804e-02
   endloop
 endfacet
 facet normal  1.000000e+00  0.000000e+00  0.000000e+00
   outer loop
     vertex  2.000000e-01  1.066864e-01  3.781393e-02
     vertex  2.000000e-01  1.188821e-01  3.862712e-02
     vertex  2.000000e-01  1.113758e-01  5.674881e-02
   endloop
 endfacet
 facet normal  1.000000e+00  0.000000e+00  0.000000e+00
   outer loop
     vertex  2.000000e-01  1.107955e-01  1.905978e-02
     vertex  2.000000e-01  1.066864e-01  3.781393e-02
     vertex  2.000000e-01  9.482173e-02  2.817526e-02
   endloop
 endfacet
 facet normal  1.000000e+00  0.000000e+00  0.000000e+00
   outer loop
     vertex  2.000000e-01  9.470193e-02  4.647773e-02
     vertex  2.000000e-01  9.482173e-02  2.817526e-02
     vertex  2.000000e-01  1.066864e-01  3.781393e-02
   endloop
 endfacet
 facet normal  1.000000e+00  0.000000e+00  0.000000e+00
   outer loop
     vertex  2.000000e-01  1.107955e-01  1.905978e-02
     vertex  2.000000e-01  1.234610e-01  1.955431e-02
     vertex  2.000000e-01  1.188821e-01  3.862712e-02
   endloop
 endfacet
 facet normal  1.000000e+00  0.000000e+00  0.000000e+00
   outer loop
     vertex  2.000000e-01  1.113758e-01  5.674881e-02
     vertex  2.000000e-01  9.470193e-02  4.647773e-02
     vertex  2.000000e-01  1.066864e-01  3.781393e-02
   endloop
 endfacet
 facet normal  1.000000e+00 -0.000000e+00  0.000000e+00
   outer loop
     vertex  2.000000e-01  1.066864e-01  3.781393e-02
     vertex  2.000000e-01  1.107955e-01  1.905978e-02
     vertex  2.000000e-01  1.188821e-01  3.862712e-02
   endloop
 endfacet
 facet normal  1.000000e+00  0.000000e+00  0.000000e+00
   outer loop
     vertex  2.000000e-01  7.946000e-02  5.572616e-02
     vertex  2.000000e-01  7.937872e-02  3.744804e-02
     vertex  2.000000e-01  9.470193e-02  4.647773e-02
   endloop
 endfacet
 facet normal  1.000000e+00  0.000000e+00  0.000000e+00
   outer loop
     vertex  2.000000e-01  8.109351e-02  7.445950e-02
     vertex  2.000000e-01  7.946000e-02  5.572616e-02
     vertex  2.000000e-01  9.374339e-02  6.175641e-02
   endloop
 endfacet
 facet normal  1.000000e+00  0.000000e+00  0.000000e+00
   outer loop
     vertex  2.000000e-01  9.470193e-02  4.647773e-02
     vertex  2.000000e-01  9.374339e-02  6.175641e-02
     vertex  2.000000e-01  7.946000e-02  5.572616e-02
   endloop
 endfacet
 facet normal  1.000000e+00 -0.000000e+00  0.000000e+00
   outer loop
     vertex  2.000000e-01  7.697012e-02  8.789133e-02
     vertex  2.000000e-01  8.109351e-02  7.445950e-02
     vertex  2.000000e-01  8.838835e-02  8.838835e-02
   endloop
 endfacet
 facet normal  1.000000e+00  0.000000e+00  0.000000e+00
   outer loop
     vertex  2.000000e-01  7.347316e-02  1.011271e-01
     vertex  2.000000e-01  7.697012e-02  8.789133e-02
     vertex  2.000000e-01  8.838835e-02  8.838835e-02
   endloop
 endfacet
 facet normal  1.000000e+00  0.000000e+00 -0.000000e+00
   outer loop
     vertex  2.000000e-01  9.374339e-02  6.175641e-02
     vertex  2.000000e-01  1.011271e-01  7.347316e-02
     vertex  2.000000e-01  8.109351e-02  7.445950e-02
   endloop
 endfacet
 facet normal  1.000000e+00  0.000000e+00  0.000000e+00
   outer loop
     vertex  2.000000e-01  9.374339e-02  6.175641e-02
     vertex  2.000000e-01  9.470193e-02  4.647773e-02
     vertex  2.000000e-01  1.113758e-01  5.674881e-02
   endloop
 endfacet
 facet normal  1.000000e+00  0.000000e+00  0.000000e+00
   outer loop
     vertex  2.000000e-01  8.838835e-02  8.838835e-02
     vertex  2.000000e-01  8.109351e-02  7.445950e-02
     vertex  2.000000e-01  1.011271e-01  7.347316e-02
   endloop
 endfacet
 facet normal  1.000000e+00 -0.000000e+00  0.000000e+00
   outer loop
     vertex  2.000000e-01  9.374339e-02  6.175641e-02
     vertex  2.000000e-01  1.113758e-01  5.674881e-02
     vertex  2.000000e-01  1.011271e-01  7.347316e-02
   endloop
 endfacet
 facet normal  1.000000e+00  0.000000e+00  0.000000e+00
   outer loop
     vertex  2.000000e-01  6.075068e-02  9.873743e-02
     vertex  2.000000e-01  5.674881e-02  1.113758e-01
     vertex  2.000000e-01  4.774585e-02  9.562710e-02
   endloop
 endfacet
 facet normal  1.000000e+00  0.000000e+00  0.000000e+00
   outer loop
     vertex  2.000000e-01  2.940624e-02  1.050747e-01
     vertex  2.000000e-01  3.072806e-02  8.502822e-02
     vertex  2.000000e-01  4.774585e-02  9.562710e-02
   endloop
 endfacet
 facet normal  1.000000e+00  0.000000e+00  0.000000e+00
   outer loop
     vertex  2.000000e-01  3.862712e-02  1.188821e-01
     vertex  2.000000e-01  4.353504e-02  1.079794e-01
     vertex  2.000000e-01  5.674881e-02  1.113758e-01
   endloop
 endfacet
 facet normal  1.000000e+00 -0.000000e+00  0.000000e+00
   outer loop
     vertex  2.000000e-01  4.353504e-02  1.079794e-01
     vertex  2.000000e-01  4.774585e-02  9.562710e-02
     vertex  2.000000e-01  5.674881e-02  1.113758e-01
   endloop
 endfacet
 facet normal  1.000000e+00  0.000000e+00  0.000000e+00
   outer loop
     vertex  2.000000e-01  1.360760e-02  9.377835e-02
     vertex  2.000000e-01  1.450531e-02  7.514511e-02
     vertex  2.000000e-01  3.072806e-02  8.502822e-02
   endloop
 endfacet
 facet normal  1.000000e+00  0.000000e+00  0.000000e+00
   outer loop
     vertex  2.000000e-01  9.766441e-03  1.111488e-01
     vertex  2.000000e-01  1.360760e-02  9.377835e-02
     vertex  2.000000e-01  2.940624e-02  1.050747e-01
   endloop
 endfacet
 facet normal  1.000000e+00  0.000000e+00  0.000000e+00
   outer loop
     vertex  2.000000e-01  3.072806e-02  8.502822e-02
     vertex  2.000000e-01  2.940624e-02  1.050747e-01
     vertex  2.000000e-01  1.360760e-02  9.377835e-02
   endloop
 endfacet
 facet normal  1.000000e+00  0.000000e+00  0.000000e+00
   outer loop
     vertex  2.000000e-01  1.955431e-02  1.234610e-01
     vertex  2.000000e-01  9.766441e-03  1.111488e-01
     vertex  2.000000e-01  2.940624e-02  1.050747e-01
   endloop
 endfacet
 facet normal  1.000000e+00  0.000000e+00  0.000000e+00
   outer loop
     vertex  2.000000e-01  4.774585e-02  9.562710e-02
     vertex  2.000000e-01  4.353504e-02  1.079794e-01
     vertex  2.000000e-01  2.940624e-02  1.050747e-01
   endloop
 endfacet
 facet normal  1.000000e+00  0.000000e+00 -0.000000e+00
   outer loop
     vertex  2.000000e-01  2.940624e-02  1.050747e-01
     vertex  2.000000e-01  3.862712e-02  1.188821e-01
     vertex  2.000000e-01  1.955431e-02  1.234610e-01
   endloop
 endfacet
 facet normal  1.000000e+00  0.000000e+00  0.000000e+00
   outer loop
     vertex  2.000000e-01  4.353504e-02  1.079794e-01
     vertex  2.000000e-01  3.862712e-02  1.188821e-01
     vertex  2.000000e-01  2.940624e-02  1.050747e-01
   endloop
 endfacet
 facet normal  1.000000e+00  0.000000e+00  0.000000e+00
   outer loop
     vertex  2.000000e-01 -3.862712e-02 -1.188821e-01
     vertex  2.000000e-01 -4.548543e-02 -1.073091e-01
     vertex  2.000000e-01 -5.674881e-02 -1.113758e-01
   endloop
 endfacet
 facet normal  1.000000e+00  0.000000e+00 -0.000000e+00
   outer loop
     vertex  2.000000e-01 -1.954998e-02 -1.096884e-01
     vertex  2.000000e-01 -1.831438e-02 -9.324623e-02
     vertex  2.000000e-01 -3.446959e-02 -1.018390e-01
   endloop
 endfacet
 facet normal  1.000000e+00  0.000000e+00  0.000000e+00
   outer loop
     vertex  2.000000e-01 -1.954998e-02 -1.096884e-01
     vertex  2.000000e-01 -3.446959e-02 -1.018390e-01
     vertex  2.000000e-01 -3.862712e-02 -1.188821e-01
   endloop
 endfacet
 facet normal  1.000000e+00  0.000000e+00  0.000000e+00
   outer loop
     vertex  2.000000e-01 -3.446959e-02 -1.018390e-01
     vertex  2.000000e-01 -4.548543e-02 -1.073091e-01
     vertex  2.000000e-01 -3.862712e-02 -1.188821e-01
   endloop
 endfacet
 facet normal  1.000000e+00 -0.000000e+00  0.000000e+00
   outer loop
     vertex  2.000000e-01 -3.862712e-02 -1.188821e-01
     vertex  2.000000e-01 -1.955431e-02 -1.234610e-01
     vertex  2.000000e-01 -1.954998e-02 -1.096884e-01
   endloop
 endfacet
 facet normal  1.000000e+00  0.000000e+00  0.000000e+00
   outer loop
     vertex  2.000000e-01 -1.530808e-17 -1.250000e-01
     vertex  2.000000e-01 -5.898037e-03 -1.149605e-01
     vertex  2.000000e-01 -1.955431e-02 -1.234610e-01
   endloop
 endfacet
 facet normal  1.000000e+00  0.000000e+00 -0.000000e+00
   outer loop
     vertex  2.000000e-01 -3.119552e-03 -1.017566e-01
     vertex  2.000000e-01 -1.913947e-03 -8.428307e-02
     vertex  2.000000e-01 -1.831438e-02 -9.324623e-02
   endloop
 endfacet
 facet normal  1.000000e+00  0.000000e+00 -0.000000e+00
   outer loop
     vertex  2.000000e-01  1.361223e-02 -9.377712e-02
     vertex  2.000000e-01  1.449701e-02 -7.513344e-02
     vertex  2.000000e-01 -1.913947e-03 -8.428307e-02
   endloop
 endfacet
 facet normal  1.000000e+00  0.000000e+00 -0.000000e+00
   outer loop
     vertex  2.000000e-01  9.761514e-03 -1.111360e-01
     vertex  2.000000e-01  1.361223e-02 -9.377712e-02
     vertex  2.000000e-01 -3.119552e-03 -1.017566e-01
   endloop
 endfacet
 facet normal  1.000000e+00  0.000000e+00  0.000000e+00
   outer loop
     vertex  2.000000e-01 -1.913947e-03 -8.428307e-02
     vertex  2.000000e-01 -3.119552e-03 -1.017566e-01
     vertex  2.000000e-01  1.361223e-02 -9.377712e-02
   endloop
 endfacet
 facet normal  1.000000e+00  0.000000e+00  0.000000e+00
   outer loop
     vertex  2.000000e-01  1.955431e-02 -1.234610e-01
     vertex  2.000000e-01  9.761514e-03 -1.111360e-01
     vertex  2.000000e-01 -1.530808e-17 -1.250000e-01
   endloop
 endfacet
 facet normal  1.000000e+00  0.000000e+00  0.000000e+00
   outer loop
     vertex  2.000000e-01 -3.119552e-03 -1.017566e-01
     vertex  2.000000e-01 -5.898037e-03 -1.149605e-01
     vertex  2.000000e-01  9.761514e-03 -1.111360e-01
   endloop
 endfacet
 facet normal  1.000000e+00  0.000000e+00  0.000000e+00
   outer loop
     vertex  2.000000e-01 -1.954998e-02 -1.096884e-01
     vertex  2.000000e-01 -1.955431e-02 -1.234610e-01
     vertex  2.000000e-01 -5.898037e-03 -1.149605e-01
   endloop
 endfacet
 facet normal  1.000000e+00  0.000000e+00  0.000000e+00
   outer loop
     vertex  2.000000e-01 -1.831438e-02 -9.324623e-02
     vertex  2.000000e-01 -1.954998e-02 -1.096884e-01
     vertex  2.000000e-01 -3.119552e-03 -1.017566e-01
   endloop
 endfacet
 facet normal  1.000000e+00  0.000000e+00 -0.000000e+00
   outer loop
     vertex  2.000000e-01 -5.898037e-03 -1.149605e-01
     vertex  2.000000e-01 -3.119552e-03 -1.017566e-01
     vertex  2.000000e-01 -1.954998e-02 -1.096884e-01
   endloop
 endfacet
 facet normal  1.000000e+00  0.000000e+00 -0.000000e+00
   outer loop
     vertex  2.000000e-01  3.070433e-02 -8.498958e-02
     vertex  2.000000e-01  3.086745e-02 -6.579902e-02
     vertex  2.000000e-01  1.449701e-02 -7.513344e-02
   endloop
 endfacet
 facet normal  1.000000e+00  0.000000e+00  0.000000e+00
   outer loop
     vertex  2.000000e-01  4.735634e-02 -7.557876e-02
     vertex  2.000000e-01  4.717077e-02 -5.637328e-02
     vertex  2.000000e-01  3.086745e-02 -6.579902e-02
   endloop
 endfacet
 facet normal  1.000000e+00  0.000000e+00  0.000000e+00
   outer loop
     vertex  2.000000e-01  4.769603e-02 -9.553867e-02
     vertex  2.000000e-01  4.735634e-02 -7.557876e-02
     vertex  2.000000e-01  3.070433e-02 -8.498958e-02
   endloop
 endfacet
 facet normal  1.000000e+00  0.000000e+00  0.000000e+00
   outer loop
     vertex  2.000000e-01  3.086745e-02 -6.579902e-02
     vertex  2.000000e-01  3.070433e-02 -8.498958e-02
     vertex  2.000000e-01  4.735634e-02 -7.557876e-02
   endloop
 endfacet
 facet normal  1.000000e+00  0.000000e+00  0.000000e+00
   outer loop
     vertex  2.000000e-01  6.372272e-02 -6.581274e-02
     vertex  2.000000e-01  6.335918e-02 -4.688242e-02
     vertex  2.000000e-01  4.717077e-02 -5.637328e-02
   endloop
 endfacet
 facet normal  1.000000e+00  0.000000e+00  0.000000e+00
   outer loop
     vertex  2.000000e-01  7.945811e-02 -5.571970e-02
     vertex  2.000000e-01  7.937831e-02 -3.744494e-02
     vertex  2.000000e-01  6.335918e-02 -4.688242e-02
   endloop
 endfacet
 facet normal  1.000000e+00  0.000000e+00  0.000000e+00
   outer loop
     vertex  2.000000e-01  8.108672e-02 -7.444667e-02
     vertex  2.000000e-01  7.945811e-02 -5.571970e-02
     vertex  2.000000e-01  6.372272e-02 -6.581274e-02
   endloop
 endfacet
 facet normal  1.000000e+00  0.000000e+00  0.000000e+00
   outer loop
     vertex  2.000000e-01  6.335918e-02 -4.688242e-02
     vertex  2.000000e-01  6.372272e-02 -6.581274e-02
     vertex  2.000000e-01  7.945811e-02 -5.571970e-02
   endloop
 endfacet
 facet normal  1.000000e+00  0.000000e+00 -0.000000e+00
   outer loop
     vertex  2.000000e-01  6.073755e-02 -9.869386e-02
     vertex  2.000000e-01  6.442007e-02 -8.571967e-02
     vertex  2.000000e-01  4.769603e-02 -9.553867e-02
   endloop
 endfacet
 facet normal  1.000000e+00  0.000000e+00 -0.000000e+00
   outer loop
     vertex  2.000000e-01  7.696973e-02 -8.788675e-02
     vertex  2.000000e-01  8.108672e-02 -7.444667e-02
     vertex  2.000000e-01  6.442007e-02 -8.571967e-02
   endloop
 endfacet
 facet normal  1.000000e+00 -0.000000e+00  0.000000e+00
   outer loop
     vertex  2.000000e-01  6.073755e-02 -9.869386e-02
     vertex  2.000000e-01  7.347316e-02 -1.011271e-01
     vertex  2.000000e-01  6.442007e-02 -8.571967e-02
   endloop
 endfacet
 facet normal  1.000000e+00  0.000000e+00  0.000000e+00
   outer loop
     vertex  2.000000e-01  8.838835e-02 -8.838835e-02
     vertex  2.000000e-01  7.696973e-02 -8.788675e-02
     vertex  2.000000e-01  7.347316e-02 -1.011271e-01
   endloop
 endfacet
 facet normal  1.000000e+00  0.000000e+00  0.000000e+00
   outer loop
     vertex  2.000000e-01  7.696973e-02 -8.788675e-02
     vertex  2.000000e-01  6.442007e-02 -8.571967e-02
     vertex  2.000000e-01  7.347316e-02 -1.011271e-01
   endloop
 endfacet
 facet normal  1.000000e+00  0.000000e+00  0.000000e+00
   outer loop
     vertex  2.000000e-01  6.372272e-02 -6.581274e-02
     vertex  2.000000e-01  6.442007e-02 -8.571967e-02
     vertex  2.000000e-01  8.108672e-02 -7.444667e-02
   endloop
 endfacet
 facet normal  1.000000e+00  0.000000e+00  0.000000e+00
   outer loop
     vertex  2.000000e-01  4.735634e-02 -7.557876e-02
     vertex  2.000000e-01  4.769603e-02 -9.553867e-02
     vertex  2.000000e-01  6.442007e-02 -8.571967e-02
   endloop
 endfacet
 facet normal  1.000000e+00  0.000000e+00  0.000000e+00
   outer loop
     vertex  2.000000e-01  4.717077e-02 -5.637328e-02
     vertex  2.000000e-01  4.735634e-02 -7.557876e-02
     vertex  2.000000e-01  6.372272e-02 -6.581274e-02
   endloop
 endfacet
 facet normal  1.000000e+00  0.000000e+00  0.000000e+00
   outer loop
     vertex  2.000000e-01  6.442007e-02 -8.571967e-02
     vertex  2.000000e-01  6.372272e-02 -6.581274e-02
     vertex  2.000000e-01  4.735634e-02 -7.557876e-02
   endloop
 endfacet
 facet normal  1.000000e+00  0.000000e+00 -0.000000e+00
   outer loop
     vertex  2.000000e-01  9.467471e-02 -4.647505e-02
     vertex  2.000000e-01  9.484079e-02 -2.818468e-02
     vertex  2.000000e-01  7.937831e-02 -3.744494e-02
   endloop
 endfacet
 facet normal  1.000000e+00  0.000000e+00 -0.000000e+00
   outer loop
     vertex  2.000000e-01  1.066848e-01 -3.781468e-02
     vertex  2.000000e-01  1.107908e-01 -1.905821e-02
     vertex  2.000000e-01  9.484079e-02 -2.818468e-02
   endloop
 endfacet
 facet normal  1.000000e+00  0.000000e+00 -0.000000e+00
   outer loop
     vertex  2.000000e-01  1.113758e-01 -5.674881e-02
     vertex  2.000000e-01  1.188821e-01 -3.862712e-02
     vertex  2.000000e-01  1.066848e-01 -3.781468e-02
   endloop
 endfacet
 facet normal  1.000000e+00  0.000000e+00  0.000000e+00
   outer loop
     vertex  2.000000e-01  9.484079e-02 -2.818468e-02
     vertex  2.000000e-01  9.467471e-02 -4.647505e-02
     vertex  2.000000e-01  1.066848e-01 -3.781468e-02
   endloop
 endfacet
 facet normal  1.000000e+00  0.000000e+00  0.000000e+00
   outer loop
     vertex  2.000000e-01  1.250000e-01 -2.296213e-17
     vertex  2.000000e-01  1.079315e-01  2.101249e-07
     vertex  2.000000e-01  1.107908e-01 -1.905821e-02
   endloop
 endfacet
 facet normal  1.000000e+00 -0.000000e+00  0.000000e+00
   outer loop
     vertex  2.000000e-01  1.066848e-01 -3.781468e-02
     vertex  2.000000e-01  1.188821e-01 -3.862712e-02
     vertex  2.000000e-01  1.107908e-01 -1.905821e-02
   endloop
 endfacet
 facet normal  1.000000e+00  0.000000e+00  0.000000e+00
   outer loop
     vertex  2.000000e-01  1.234610e-01 -1.955431e-02
     vertex  2.000000e-01  1.107908e-01 -1.905821e-02
     vertex  2.000000e-01  1.188821e-01 -3.862712e-02
   endloop
 endfacet
 facet normal  1.000000e+00  0.000000e+00  0.000000e+00
   outer loop
     vertex  2.000000e-01  8.108672e-02 -7.444667e-02
     vertex  2.000000e-01  7.696973e-02 -8.788675e-02
     vertex  2.000000e-01  8.838835e-02 -8.838835e-02
   endloop
 endfacet
 facet normal  1.000000e+00  0.000000e+00  0.000000e+00
   outer loop
     vertex  2.000000e-01  1.011271e-01 -7.347316e-02
     vertex  2.000000e-01  8.108672e-02 -7.444667e-02
     vertex  2.000000e-01  8.838835e-02 -8.838835e-02
   endloop
 endfacet
 facet normal  1.000000e+00  0.000000e+00  0.000000e+00
   outer loop
     vertex  2.000000e-01  9.373840e-02 -6.175331e-02
     vertex  2.000000e-01  1.113758e-01 -5.674881e-02
     vertex  2.000000e-01  9.467471e-02 -4.647505e-02
   endloop
 endfacet
 facet normal  1.000000e+00  0.000000e+00  0.000000e+00
   outer loop
     vertex  2.000000e-01  7.945811e-02 -5.571970e-02
     vertex  2.000000e-01  8.108672e-02 -7.444667e-02
     vertex  2.000000e-01  9.373840e-02 -6.175331e-02
   endloop
 endfacet
 facet normal  1.000000e+00  0.000000e+00  0.000000e+00
   outer loop
     vertex  2.000000e-01  7.937831e-02 -3.744494e-02
     vertex  2.000000e-01  7.945811e-02 -5.571970e-02
     vertex  2.000000e-01  9.467471e-02 -4.647505e-02
   endloop
 endfacet
 facet normal  1.000000e+00  0.000000e+00 -0.000000e+00
   outer loop
     vertex  2.000000e-01  9.373840e-02 -6.175331e-02
     vertex  2.000000e-01  9.467471e-02 -4.647505e-02
     vertex  2.000000e-01  7.945811e-02 -5.571970e-02
   endloop
 endfacet
 facet normal  1.000000e+00  0.000000e+00  0.000000e+00
   outer loop
     vertex  2.000000e-01  1.066848e-01 -3.781468e-02
     vertex  2.000000e-01  9.467471e-02 -4.647505e-02
     vertex  2.000000e-01  1.113758e-01 -5.674881e-02
   endloop
 endfacet
 facet normal  1.000000e+00 -0.000000e+00  0.000000e+00
   outer loop
     vertex  2.000000e-01  9.373840e-02 -6.175331e-02
     vertex  2.000000e-01  1.011271e-01 -7.347316e-02
     vertex  2.000000e-01  1.113758e-01 -5.674881e-02
   endloop
 endfacet
 facet normal  1.000000e+00  0.000000e+00  0.000000e+00
   outer loop
     vertex  2.000000e-01  9.373840e-02 -6.175331e-02
     vertex  2.000000e-01  8.108672e-02 -7.444667e-02
     vertex  2.000000e-01  1.011271e-01 -7.347316e-02
   endloop
 endfacet
 facet normal  1.000000e+00 -0.000000e+00  0.000000e+00
   outer loop
     vertex  2.000000e-01  4.350932e-02 -1.079330e-01
     vertex  2.000000e-01  5.674881e-02 -1.113758e-01
     vertex  2.000000e-01  4.769603e-02 -9.553867e-02
   endloop
 endfacet
 facet normal  1.000000e+00  0.000000e+00  0.000000e+00
   outer loop
     vertex  2.000000e-01  7.347316e-02 -1.011271e-01
     vertex  2.000000e-01  6.073755e-02 -9.869386e-02
     vertex  2.000000e-01  5.674881e-02 -1.113758e-01
   endloop
 endfacet
 facet normal  1.000000e+00  0.000000e+00  0.000000e+00
   outer loop
     vertex  2.000000e-01  6.073755e-02 -9.869386e-02
     vertex  2.000000e-01  4.769603e-02 -9.553867e-02
     vertex  2.000000e-01  5.674881e-02 -1.113758e-01
   endloop
 endfacet
 facet normal  1.000000e+00 -0.000000e+00  0.000000e+00
   outer loop
     vertex  2.000000e-01 -5.898037e-03 -1.149605e-01
     vertex  2.000000e-01 -1.530808e-17 -1.250000e-01
     vertex  2.000000e-01  9.761514e-03 -1.111360e-01
   endloop
 endfacet
 facet normal  1.000000e+00  0.000000e+00  0.000000e+00
   outer loop
     vertex  2.000000e-01  1.955431e-02 -1.234610e-01
     vertex  2.000000e-01  3.862712e-02 -1.188821e-01
     vertex  2.000000e-01  2.938780e-02 -1.050406e-01
   endloop
 endfacet
 facet normal  1.000000e+00  0.000000e+00  0.000000e+00
   outer loop
     vertex  2.000000e-01  3.070433e-02 -8.498958e-02
     vertex  2.000000e-01  2.938780e-02 -1.050406e-01
     vertex  2.000000e-01  4.769603e-02 -9.553867e-02
   endloop
 endfacet
 facet normal  1.000000e+00  0.000000e+00  0.000000e+00
   outer loop
     vertex  2.000000e-01  1.361223e-02 -9.377712e-02
     vertex  2.000000e-01  9.761514e-03 -1.111360e-01
     vertex  2.000000e-01  2.938780e-02 -1.050406e-01
   endloop
 endfacet
 facet normal  1.000000e+00  0.000000e+00  0.000000e+00
   outer loop
     vertex  2.000000e-01  1.449701e-02 -7.513344e-02
     vertex  2.000000e-01  1.361223e-02 -9.377712e-02
     vertex  2.000000e-01  3.070433e-02 -8.498958e-02
   endloop
 endfacet
 facet normal  1.000000e+00  0.000000e+00 -0.000000e+00
   outer loop
     vertex  2.000000e-01  2.938780e-02 -1.050406e-01
     vertex  2.000000e-01  3.070433e-02 -8.498958e-02
     vertex  2.000000e-01  1.361223e-02 -9.377712e-02
   endloop
 endfacet
 facet normal  1.000000e+00  0.000000e+00  0.000000e+00
   outer loop
     vertex  2.000000e-01  2.938780e-02 -1.050406e-01
     vertex  2.000000e-01  9.761514e-03 -1.111360e-01
     vertex  2.000000e-01  1.955431e-02 -1.234610e-01
   endloop
 endfacet
 facet normal  1.000000e+00  0.000000e+00 -0.000000e+00
   outer loop
     vertex  2.000000e-01  4.350932e-02 -1.079330e-01
     vertex  2.000000e-01  4.769603e-02 -9.553867e-02
     vertex  2.000000e-01  2.938780e-02 -1.050406e-01
   endloop
 endfacet
 facet normal  1.000000e+00  0.000000e+00  0.000000e+00
   outer loop
     vertex  2.000000e-01  5.674881e-02 -1.113758e-01
     vertex  2.000000e-01  4.350932e-02 -1.079330e-01
     vertex  2.000000e-01  3.862712e-02 -1.188821e-01
   endloop
 endfacet
 facet normal  1.000000e+00  0.000000e+00  0.000000e+00
   outer loop
     vertex  2.000000e-01  4.350932e-02 -1.079330e-01
     vertex  2.000000e-01  2.938780e-02 -1.050406e-01
     vertex  2.000000e-01  3.862712e-02 -1.188821e-01
   endloop
 endfacet
 facet normal  1.000000e+00 -0.000000e+00  0.000000e+00
   outer loop
     vertex  2.000000e-01  1.107908e-01 -1.905821e-02
     vertex  2.000000e-01  1.234610e-01 -1.955431e-02
     vertex  2.000000e-01  1.250000e-01 -2.296213e-17
   endloop
 endfacet
 facet normal  1.000000e+00  0.000000e+00  0.000000e+00
   outer loop
     vertex  2.000000e-01  1.250000e-01 -2.296213e-17
     vertex  2.000000e-01  1.234610e-01  1.955431e-02
     vertex  2.000000e-01  1.107955e-01  1.905978e-02
   endloop
 endfacet
 facet normal  1.000000e+00  0.000000e+00  0.000000e+00
   outer loop
     vertex  2.000000e-01  9.495501e-02 -9.424190e-03
     vertex  2.000000e-01  9.484079e-02 -2.818468e-02
     vertex  2.000000e-01  1.107908e-01 -1.905821e-02
   endloop
 endfacet
 facet normal  1.000000e+00  0.000000e+00  0.000000e+00
   outer loop
     vertex  2.000000e-01  1.107955e-01  1.905978e-02
     vertex  2.000000e-01  1.079315e-01  2.101249e-07
     vertex  2.000000e-01  1.250000e-01 -2.296213e-17
   endloop
 endfacet
 facet normal  1.000000e+00  0.000000e+00  0.000000e+00
   outer loop
     vertex  2.000000e-01  7.935125e-02 -1.876809e-02
     vertex  2.000000e-01  7.937831e-02 -3.744494e-02
     vertex  2.000000e-01  9.484079e-02 -2.818468e-02
   endloop
 endfacet
 facet normal  1.000000e+00  0.000000e+00  0.000000e+00
   outer loop
     vertex  2.000000e-01  7.946542e-02 -2.833789e-08
     vertex  2.000000e-01  7.935125e-02 -1.876809e-02
     vertex  2.000000e-01  9.495501e-02 -9.424190e-03
   endloop
 endfacet
 facet normal  1.000000e+00  0.000000e+00 -0.000000e+00
   outer loop
     vertex  2.000000e-01  9.484079e-02 -2.818468e-02
     vertex  2.000000e-01  9.495501e-02 -9.424190e-03
     vertex  2.000000e-01  7.935125e-02 -1.876809e-02
   endloop
 endfacet
 facet normal  1.000000e+00  0.000000e+00  0.000000e+00
   outer loop
     vertex  2.000000e-01  9.482173e-02  2.817526e-02
     vertex  2.000000e-01  9.491184e-02  9.421892e-03
     vertex  2.000000e-01  1.107955e-01  1.905978e-02
   endloop
 endfacet
 facet normal  1.000000e+00  0.000000e+00  0.000000e+00
   outer loop
     vertex  2.000000e-01  7.934412e-02  1.876718e-02
     vertex  2.000000e-01  7.946542e-02 -2.833789e-08
     vertex  2.000000e-01  9.491184e-02  9.421892e-03
   endloop
 endfacet
 facet normal  1.000000e+00  0.000000e+00  0.000000e+00
   outer loop
     vertex  2.000000e-01  7.937872e-02  3.744804e-02
     vertex  2.000000e-01  7.934412e-02  1.876718e-02
     vertex  2.000000e-01  9.482173e-02  2.817526e-02
   endloop
 endfacet
 facet normal  1.000000e+00  0.000000e+00  0.000000e+00
   outer loop
     vertex  2.000000e-01  9.491184e-02  9.421892e-03
     vertex  2.000000e-01  9.482173e-02  2.817526e-02
     vertex  2.000000e-01  7.934412e-02  1.876718e-02
   endloop
 endfacet
 facet normal  1.000000e+00  0.000000e+00  0.000000e+00
   outer loop
     vertex  2.000000e-01  9.495501e-02 -9.424190e-03
     vertex  2.000000e-01  9.491184e-02  9.421892e-03
     vertex  2.000000e-01  7.946542e-02 -2.833789e-08
   endloop
 endfacet
 facet normal  1.000000e+00  0.000000e+00 -0.000000e+00
   outer loop
     vertex  2.000000e-01  1.079315e-01  2.101249e-07
     vertex  2.000000e-01  1.107955e-01  1.905978e-02
     vertex  2.000000e-01  9.491184e-02  9.421892e-03
   endloop
 endfacet
 facet normal  1.000000e+00  0.000000e+00  0.000000e+00
   outer loop
     vertex  2.000000e-01  1.107908e-01 -1.905821e-02
     vertex  2.000000e-01  1.079315e-01  2.101249e-07
     vertex  2.000000e-01  9.495501e-02 -9.424190e-03
   endloop
 endfacet
 facet normal  1.000000e+00  0.000000e+00  0.000000e+00
   outer loop
     vertex  2.000000e-01  9.491184e-02  9.421892e-03
     vertex  2.000000e-01  9.495501e-02 -9.424190e-03
     vertex  2.000000e-01  1.079315e-01  2.101249e-07
   endloop
 endfacet
 facet normal  1.000000e+00  0.000000e+00  0.000000e+00
   outer loop
     vertex  2.000000e-01  6.330607e-02 -2.813979e-02
     vertex  2.000000e-01  6.335918e-02 -4.688242e-02
     vertex  2.000000e-01  7.937831e-02 -3.744494e-02
   endloop
 endfacet
 facet normal  1.000000e+00  0.000000e+00  0.000000e+00
   outer loop
     vertex  2.000000e-01  4.710750e-02 -3.754012e-02
     vertex  2.000000e-01  4.717077e-02 -5.637328e-02
     vertex  2.000000e-01  6.335918e-02 -4.688242e-02
   endloop
 endfacet
 facet normal  1.000000e+00  0.000000e+00  0.000000e+00
   outer loop
     vertex  2.000000e-01  4.710437e-02 -1.876920e-02
     vertex  2.000000e-01  4.710750e-02 -3.754012e-02
     vertex  2.000000e-01  6.330607e-02 -2.813979e-02
   endloop
 endfacet
 facet normal  1.000000e+00  0.000000e+00  0.000000e+00
   outer loop
     vertex  2.000000e-01  6.335918e-02 -4.688242e-02
     vertex  2.000000e-01  6.330607e-02 -2.813979e-02
     vertex  2.000000e-01  4.710750e-02 -3.754012e-02
   endloop
 endfacet
 facet normal  1.000000e+00  0.000000e+00  0.000000e+00
   outer loop
     vertex  2.000000e-01  3.086035e-02 -4.694185e-02
     vertex  2.000000e-01  3.086745e-02 -6.579902e-02
     vertex  2.000000e-01  4.717077e-02 -5.637328e-02
   endloop
 endfacet
 facet normal  1.000000e+00  0.000000e+00  0.000000e+00
   outer loop
     vertex  2.000000e-01  1.458829e-02 -5.632676e-02
     vertex  2.000000e-01  1.449701e-02 -7.513344e-02
     vertex  2.000000e-01  3.086745e-02 -6.579902e-02
   endloop
 endfacet
 facet normal  1.000000e+00  0.000000e+00  0.000000e+00
   outer loop
     vertex  2.000000e-01  1.459730e-02 -3.753925e-02
     vertex  2.000000e-01  1.458829e-02 -5.632676e-02
     vertex  2.000000e-01  3.086035e-02 -4.694185e-02
   endloop
 endfacet
 facet normal  1.000000e+00  0.000000e+00  0.000000e+00
   outer loop
     vertex  2.000000e-01  3.086745e-02 -6.579902e-02
     vertex  2.000000e-01  3.086035e-02 -4.694185e-02
     vertex  2.000000e-01  1.458829e-02 -5.632676e-02
   endloop
 endfacet
 facet normal  1.000000e+00  0.000000e+00  0.000000e+00
   outer loop
     vertex  2.000000e-01  3.085177e-02 -9.384853e-03
     vertex  2.000000e-01  3.085279e-02 -2.815609e-02
     vertex  2.000000e-01  4.710437e-02 -1.876920e-02
   endloop
 endfacet
 facet normal  1.000000e+00  0.000000e+00  0.000000e+00
   outer loop
     vertex  2.000000e-01  1.459745e-02 -1.876960e-02
     vertex  2.000000e-01  1.459730e-02 -3.753925e-02
     vertex  2.000000e-01  3.085279e-02 -2.815609e-02
   endloop
 endfacet
 facet normal  1.000000e+00  0.000000e+00  0.000000e+00
   outer loop
     vertex  2.000000e-01  1.459742e-02  3.898024e-09
     vertex  2.000000e-01  1.459745e-02 -1.876960e-02
     vertex  2.000000e-01  3.085177e-02 -9.384853e-03
   endloop
 endfacet
 facet normal  1.000000e+00  0.000000e+00  0.000000e+00
   outer loop
     vertex  2.000000e-01  3.085279e-02 -2.815609e-02
     vertex  2.000000e-01  3.085177e-02 -9.384853e-03
     vertex  2.000000e-01  1.459745e-02 -1.876960e-02
   endloop
 endfacet
 facet normal  1.000000e+00  0.000000e+00  0.000000e+00
   outer loop
     vertex  2.000000e-01  3.086035e-02 -4.694185e-02
     vertex  2.000000e-01  3.085279e-02 -2.815609e-02
     vertex  2.000000e-01  1.459730e-02 -3.753925e-02
   endloop
 endfacet
 facet normal  1.000000e+00  0.000000e+00  0.000000e+00
   outer loop
     vertex  2.000000e-01  4.710750e-02 -3.754012e-02
     vertex  2.000000e-01  4.710437e-02 -1.876920e-02
     vertex  2.000000e-01  3.085279e-02 -2.815609e-02
   endloop
 endfacet
 facet normal  1.000000e+00  0.000000e+00  0.000000e+00
   outer loop
     vertex  2.000000e-01  4.717077e-02 -5.637328e-02
     vertex  2.000000e-01  4.710750e-02 -3.754012e-02
     vertex  2.000000e-01  3.086035e-02 -4.694185e-02
   endloop
 endfacet
 facet normal  1.000000e+00  0.000000e+00  0.000000e+00
   outer loop
     vertex  2.000000e-01  3.085279e-02 -2.815609e-02
     vertex  2.000000e-01  3.086035e-02 -4.694185e-02
     vertex  2.000000e-01  4.710750e-02 -3.754012e-02
   endloop
 endfacet
 facet normal  1.000000e+00  0.000000e+00  0.000000e+00
   outer loop
     vertex  2.000000e-01  6.337198e-02  4.688781e-02
     vertex  2.000000e-01  6.330713e-02  2.814096e-02
     vertex  2.000000e-01  7.937872e-02  3.744804e-02
   endloop
 endfacet
 facet normal  1.000000e+00  0.000000e+00  0.000000e+00
   outer loop
     vertex  2.000000e-01  4.711019e-02  3.754272e-02
     vertex  2.000000e-01  4.710464e-02  1.876950e-02
     vertex  2.000000e-01  6.330713e-02  2.814096e-02
   endloop
 endfacet
 facet normal  1.000000e+00  0.000000e+00  0.000000e+00
   outer loop
     vertex  2.000000e-01  4.717740e-02  5.638493e-02
     vertex  2.000000e-01  4.711019e-02  3.754272e-02
     vertex  2.000000e-01  6.337198e-02  4.688781e-02
   endloop
 endfacet
 facet normal  1.000000e+00  0.000000e+00 -0.000000e+00
   outer loop
     vertex  2.000000e-01  6.330713e-02  2.814096e-02
     vertex  2.000000e-01  6.337198e-02  4.688781e-02
     vertex  2.000000e-01  4.711019e-02  3.754272e-02
   endloop
 endfacet
 facet normal  1.000000e+00  0.000000e+00  0.000000e+00
   outer loop
     vertex  2.000000e-01  3.085253e-02  2.815521e-02
     vertex  2.000000e-01  3.085174e-02  9.384718e-03
     vertex  2.000000e-01  4.710464e-02  1.876950e-02
   endloop
 endfacet
 facet normal  1.000000e+00  0.000000e+00  0.000000e+00
   outer loop
     vertex  2.000000e-01  1.459745e-02  1.876957e-02
     vertex  2.000000e-01  1.459742e-02  3.898024e-09
     vertex  2.000000e-01  3.085174e-02  9.384718e-03
   endloop
 endfacet
 facet normal  1.000000e+00  0.000000e+00  0.000000e+00
   outer loop
     vertex  2.000000e-01  1.459755e-02  3.753994e-02
     vertex  2.000000e-01  1.459745e-02  1.876957e-02
     vertex  2.000000e-01  3.085253e-02  2.815521e-02
   endloop
 endfacet
 facet normal  1.000000e+00  0.000000e+00 -0.000000e+00
   outer loop
     vertex  2.000000e-01  3.085174e-02  9.384718e-03
     vertex  2.000000e-01  3.085253e-02  2.815521e-02
     vertex  2.000000e-01  1.459745e-02  1.876957e-02
   endloop
 endfacet
 facet normal  1.000000e+00  0.000000e+00  0.000000e+00
   outer loop
     vertex  2.000000e-01  3.086947e-02  6.582867e-02
     vertex  2.000000e-01  3.086201e-02  4.694764e-02
     vertex  2.000000e-01  4.717740e-02  5.638493e-02
   endloop
 endfacet
 facet normal  1.000000e+00  0.000000e+00  0.000000e+00
   outer loop
     vertex  2.000000e-01  1.458957e-02  5.633229e-02
     vertex  2.000000e-01  1.459755e-02  3.753994e-02
     vertex  2.000000e-01  3.086201e-02  4.694764e-02
   endloop
 endfacet
 facet normal  1.000000e+00  0.000000e+00  0.000000e+00
   outer loop
     vertex  2.000000e-01  1.450531e-02  7.514511e-02
     vertex  2.000000e-01  1.458957e-02  5.633229e-02
     vertex  2.000000e-01  3.086947e-02  6.582867e-02
   endloop
 endfacet
 facet normal  1.000000e+00  0.000000e+00 -0.000000e+00
   outer loop
     vertex  2.000000e-01  3.086201e-02  4.694764e-02
     vertex  2.000000e-01  3.086947e-02  6.582867e-02
     vertex  2.000000e-01  1.458957e-02  5.633229e-02
   endloop
 endfacet
 facet normal  1.000000e+00  0.000000e+00 -0.000000e+00
   outer loop
     vertex  2.000000e-01  3.085253e-02  2.815521e-02
     vertex  2.000000e-01  3.086201e-02  4.694764e-02
     vertex  2.000000e-01  1.459755e-02  3.753994e-02
   endloop
 endfacet
 facet normal  1.000000e+00  0.000000e+00 -0.000000e+00
   outer loop
     vertex  2.000000e-01  4.711019e-02  3.754272e-02
     vertex  2.000000e-01  4.717740e-02  5.638493e-02
     vertex  2.000000e-01  3.086201e-02  4.694764e-02
   endloop
 endfacet
 facet normal  1.000000e+00  0.000000e+00 -0.000000e+00
   outer loop
     vertex  2.000000e-01  4.710464e-02  1.876950e-02
     vertex  2.000000e-01  4.711019e-02  3.754272e-02
     vertex  2.000000e-01  3.085253e-02  2.815521e-02
   endloop
 endfacet
 facet normal  1.000000e+00  0.000000e+00  0.000000e+00
   outer loop
     vertex  2.000000e-01  3.086201e-02  4.694764e-02
     vertex  2.000000e-01  3.085253e-02  2.815521e-02
     vertex  2.000000e-01  4.711019e-02  3.754272e-02
   endloop
 endfacet
 facet normal  1.000000e+00  0.000000e+00  0.000000e+00
   outer loop
     vertex  2.000000e-01  3.085177e-02 -9.384853e-03
     vertex  2.000000e-01  3.085174e-02  9.384718e-03
     vertex  2.000000e-01  1.459742e-02  3.898024e-09
   endloop
 endfacet
 facet normal  1.000000e+00  0.000000e+00 -0.000000e+00
   outer loop
     vertex  2.000000e-01  4.710422e-02  1.996138e-08
     vertex  2.000000e-01  4.710464e-02  1.876950e-02
     vertex  2.000000e-01  3.085174e-02  9.384718e-03
   endloop
 endfacet
 facet normal  1.000000e+00  0.000000e+00  0.000000e+00
   outer loop
     vertex  2.000000e-01  4.710437e-02 -1.876920e-02
     vertex  2.000000e-01  4.710422e-02  1.996138e-08
     vertex  2.000000e-01  3.085177e-02 -9.384853e-03
   endloop
 endfacet
 facet normal  1.000000e+00  0.000000e+00  0.000000e+00
   outer loop
     vertex  2.000000e-01  3.085174e-02  9.384718e-03
     vertex  2.000000e-01  3.085177e-02 -9.384853e-03
     vertex  2.000000e-01  4.710422e-02  1.996138e-08
   endloop
 endfacet
 facet normal  1.000000e+00  0.000000e+00  0.000000e+00
   outer loop
     vertex  2.000000e-01  6.330940e-02  9.383202e-03
     vertex  2.000000e-01  6.330713e-02  2.814096e-02
     vertex  2.000000e-01  4.710464e-02  1.876950e-02
   endloop
 endfacet
 facet normal  1.000000e+00  0.000000e+00 -0.000000e+00
   outer loop
     vertex  2.000000e-01  7.934412e-02  1.876718e-02
     vertex  2.000000e-01  7.937872e-02  3.744804e-02
     vertex  2.000000e-01  6.330713e-02  2.814096e-02
   endloop
 endfacet
 facet normal  1.000000e+00  0.000000e+00  0.000000e+00
   outer loop
     vertex  2.000000e-01  7.946542e-02 -2.833789e-08
     vertex  2.000000e-01  7.934412e-02  1.876718e-02
     vertex  2.000000e-01  6.330940e-02  9.383202e-03
   endloop
 endfacet
 facet normal  1.000000e+00  0.000000e+00  0.000000e+00
   outer loop
     vertex  2.000000e-01  6.330713e-02  2.814096e-02
     vertex  2.000000e-01  6.330940e-02  9.383202e-03
     vertex  2.000000e-01  7.934412e-02  1.876718e-02
   endloop
 endfacet
 facet normal  1.000000e+00  0.000000e+00  0.000000e+00
   outer loop
     vertex  2.000000e-01  6.330607e-02 -2.813979e-02
     vertex  2.000000e-01  6.330564e-02 -9.383294e-03
     vertex  2.000000e-01  4.710437e-02 -1.876920e-02
   endloop
 endfacet
 facet normal  1.000000e+00  0.000000e+00 -0.000000e+00
   outer loop
     vertex  2.000000e-01  7.935125e-02 -1.876809e-02
     vertex  2.000000e-01  7.946542e-02 -2.833789e-08
     vertex  2.000000e-01  6.330564e-02 -9.383294e-03
   endloop
 endfacet
 facet normal  1.000000e+00  0.000000e+00  0.000000e+00
   outer loop
     vertex  2.000000e-01  7.937831e-02 -3.744494e-02
     vertex  2.000000e-01  7.935125e-02 -1.876809e-02
     vertex  2.000000e-01  6.330607e-02 -2.813979e-02
   endloop
 endfacet
 facet normal  1.000000e+00  0.000000e+00  0.000000e+00
   outer loop
     vertex  2.000000e-01  6.330564e-02 -9.383294e-03
     vertex  2.000000e-01  6.330607e-02 -2.813979e-02
     vertex  2.000000e-01  7.935125e-02 -1.876809e-02
   endloop
 endfacet
 facet normal  1.000000e+00  0.000000e+00  0.000000e+00
   outer loop
     vertex  2.000000e-01  6.330940e-02  9.383202e-03
     vertex  2.000000e-01  6.330564e-02 -9.383294e-03
     vertex  2.000000e-01  7.946542e-02 -2.833789e-08
   endloop
 endfacet
 facet normal  1.000000e+00  0.000000e+00  0.000000e+00
   outer loop
     vertex  2.000000e-01  4.710422e-02  1.996138e-08
     vertex  2.000000e-01  4.710437e-02 -1.876920e-02
     vertex  2.000000e-01  6.330564e-02 -9.383294e-03
   endloop
 endfacet
 facet normal  1.000000e+00  0.000000e+00  0.000000e+00
   outer loop
     vertex  2.000000e-01  4.710464e-02  1.876950e-02
     vertex  2.000000e-01  4.710422e-02  1.996138e-08
     vertex  2.000000e-01  6.330940e-02  9.383202e-03
   endloop
 endfacet
 facet normal  1.000000e+00  0.000000e+00 -0.000000e+00
   outer loop
     vertex  2.000000e-01  6.330564e-02 -9.383294e-03
     vertex  2.000000e-01  6.330940e-02  9.383202e-03
     vertex  2.000000e-01  4.710422e-02  1.996138e-08
   endloop
 endfacet
 facet normal  1.000000e+00  0.000000e+00  0.000000e+00
   outer loop
     vertex  2.000000e-01 -1.700322e-03 -6.568064e-02
     vertex  2.000000e-01 -1.913947e-03 -8.428307e-02
     vertex  2.000000e-01  1.449701e-02 -7.513344e-02
   endloop
 endfacet
 facet normal  1.000000e+00  0.000000e+00  0.000000e+00
   outer loop
     vertex  2.000000e-01 -1.800553e-02 -7.500498e-02
     vertex  2.000000e-01 -1.831438e-02 -9.324623e-02
     vertex  2.000000e-01 -1.913947e-03 -8.428307e-02
   endloop
 endfacet
 facet normal  1.000000e+00  0.000000e+00  0.000000e+00
   outer loop
     vertex  2.000000e-01 -1.792046e-02 -5.630965e-02
     vertex  2.000000e-01 -1.800553e-02 -7.500498e-02
     vertex  2.000000e-01 -1.700322e-03 -6.568064e-02
   endloop
 endfacet
 facet normal  1.000000e+00  0.000000e+00 -0.000000e+00
   outer loop
     vertex  2.000000e-01 -1.913947e-03 -8.428307e-02
     vertex  2.000000e-01 -1.700322e-03 -6.568064e-02
     vertex  2.000000e-01 -1.800553e-02 -7.500498e-02
   endloop
 endfacet
 facet normal  1.000000e+00  0.000000e+00  0.000000e+00
   outer loop
     vertex  2.000000e-01 -3.433265e-02 -8.445461e-02
     vertex  2.000000e-01 -3.446959e-02 -1.018390e-01
     vertex  2.000000e-01 -1.831438e-02 -9.324623e-02
   endloop
 endfacet
 facet normal  1.000000e+00  0.000000e+00  0.000000e+00
   outer loop
     vertex  2.000000e-01 -5.046616e-02 -9.504957e-02
     vertex  2.000000e-01 -4.548543e-02 -1.073091e-01
     vertex  2.000000e-01 -3.446959e-02 -1.018390e-01
   endloop
 endfacet
 facet normal  1.000000e+00  0.000000e+00  0.000000e+00
   outer loop
     vertex  2.000000e-01 -5.068613e-02 -7.539701e-02
     vertex  2.000000e-01 -5.046616e-02 -9.504957e-02
     vertex  2.000000e-01 -3.433265e-02 -8.445461e-02
   endloop
 endfacet
 facet normal  1.000000e+00  0.000000e+00 -0.000000e+00
   outer loop
     vertex  2.000000e-01 -3.446959e-02 -1.018390e-01
     vertex  2.000000e-01 -3.433265e-02 -8.445461e-02
     vertex  2.000000e-01 -5.046616e-02 -9.504957e-02
   endloop
 endfacet
 facet normal  1.000000e+00  0.000000e+00  0.000000e+00
   outer loop
     vertex  2.000000e-01 -3.417932e-02 -4.692633e-02
     vertex  2.000000e-01 -3.423365e-02 -6.572580e-02
     vertex  2.000000e-01 -1.792046e-02 -5.630965e-02
   endloop
 endfacet
 facet normal  1.000000e+00  0.000000e+00  0.000000e+00
   outer loop
     vertex  2.000000e-01 -5.048980e-02 -5.632032e-02
     vertex  2.000000e-01 -5.068613e-02 -7.539701e-02
     vertex  2.000000e-01 -3.423365e-02 -6.572580e-02
   endloop
 endfacet
 facet normal  1.000000e+00  0.000000e+00  0.000000e+00
   outer loop
     vertex  2.000000e-01 -5.042075e-02 -3.752812e-02
     vertex  2.000000e-01 -5.048980e-02 -5.632032e-02
     vertex  2.000000e-01 -3.417932e-02 -4.692633e-02
   endloop
 endfacet
 facet normal  1.000000e+00  0.000000e+00 -0.000000e+00
   outer loop
     vertex  2.000000e-01 -3.423365e-02 -6.572580e-02
     vertex  2.000000e-01 -3.417932e-02 -4.692633e-02
     vertex  2.000000e-01 -5.048980e-02 -5.632032e-02
   endloop
 endfacet
 facet normal  1.000000e+00  0.000000e+00 -0.000000e+00
   outer loop
     vertex  2.000000e-01 -3.433265e-02 -8.445461e-02
     vertex  2.000000e-01 -3.423365e-02 -6.572580e-02
     vertex  2.000000e-01 -5.068613e-02 -7.539701e-02
   endloop
 endfacet
 facet normal  1.000000e+00  0.000000e+00 -0.000000e+00
   outer loop
     vertex  2.000000e-01 -1.800553e-02 -7.500498e-02
     vertex  2.000000e-01 -1.792046e-02 -5.630965e-02
     vertex  2.000000e-01 -3.423365e-02 -6.572580e-02
   endloop
 endfacet
 facet normal  1.000000e+00  0.000000e+00 -0.000000e+00
   outer loop
     vertex  2.000000e-01 -1.831438e-02 -9.324623e-02
     vertex  2.000000e-01 -1.800553e-02 -7.500498e-02
     vertex  2.000000e-01 -3.433265e-02 -8.445461e-02
   endloop
 endfacet
 facet normal  1.000000e+00  0.000000e+00  0.000000e+00
   outer loop
     vertex  2.000000e-01 -3.423365e-02 -6.572580e-02
     vertex  2.000000e-01 -3.433265e-02 -8.445461e-02
     vertex  2.000000e-01 -1.800553e-02 -7.500498e-02
   endloop
 endfacet
 facet normal  1.000000e+00  0.000000e+00  0.000000e+00
   outer loop
     vertex  2.000000e-01 -4.548543e-02 -1.073091e-01
     vertex  2.000000e-01 -5.046616e-02 -9.504957e-02
     vertex  2.000000e-01 -5.674881e-02 -1.113758e-01
   endloop
 endfacet
 facet normal  1.000000e+00  0.000000e+00  0.000000e+00
   outer loop
     vertex  2.000000e-01 -5.674881e-02 -1.113758e-01
     vertex  2.000000e-01 -6.245673e-02 -9.854415e-02
     vertex  2.000000e-01 -7.347316e-02 -1.011271e-01
   endloop
 endfacet
 facet normal  1.000000e+00  0.000000e+00  0.000000e+00
   outer loop
     vertex  2.000000e-01 -6.245673e-02 -9.854415e-02
     vertex  2.000000e-01 -6.798920e-02 -8.520713e-02
     vertex  2.000000e-01 -7.347316e-02 -1.011271e-01
   endloop
 endfacet
 facet normal  1.000000e+00  0.000000e+00  0.000000e+00
   outer loop
     vertex  2.000000e-01 -6.660875e-02 -2.810079e-02
     vertex  2.000000e-01 -6.662259e-02 -4.676219e-02
     vertex  2.000000e-01 -5.042075e-02 -3.752812e-02
   endloop
 endfacet
 facet normal  1.000000e+00  0.000000e+00  0.000000e+00
   outer loop
     vertex  2.000000e-01 -8.253481e-02 -3.721995e-02
     vertex  2.000000e-01 -8.242311e-02 -5.527113e-02
     vertex  2.000000e-01 -6.662259e-02 -4.676219e-02
   endloop
 endfacet
 facet normal  1.000000e+00  0.000000e+00  0.000000e+00
   outer loop
     vertex  2.000000e-01 -8.265389e-02 -1.862847e-02
     vertex  2.000000e-01 -8.253481e-02 -3.721995e-02
     vertex  2.000000e-01 -6.660875e-02 -2.810079e-02
   endloop
 endfacet
 facet normal  1.000000e+00  0.000000e+00 -0.000000e+00
   outer loop
     vertex  2.000000e-01 -6.662259e-02 -4.676219e-02
     vertex  2.000000e-01 -6.660875e-02 -2.810079e-02
     vertex  2.000000e-01 -8.253481e-02 -3.721995e-02
   endloop
 endfacet
 facet normal  1.000000e+00  0.000000e+00  0.000000e+00
   outer loop
     vertex  2.000000e-01 -9.725689e-02 -4.577301e-02
     vertex  2.000000e-01 -9.561767e-02 -6.129138e-02
     vertex  2.000000e-01 -8.242311e-02 -5.527113e-02
   endloop
 endfacet
 facet normal  1.000000e+00  0.000000e+00 -0.000000e+00
   outer loop
     vertex  2.000000e-01 -1.011271e-01 -7.347316e-02
     vertex  2.000000e-01 -9.561767e-02 -6.129138e-02
     vertex  2.000000e-01 -1.113758e-01 -5.674881e-02
   endloop
 endfacet
 facet normal  1.000000e+00  0.000000e+00  0.000000e+00
   outer loop
     vertex  2.000000e-01 -9.763673e-02 -8.848232e-03
     vertex  2.000000e-01 -9.766373e-02 -2.708732e-02
     vertex  2.000000e-01 -8.265389e-02 -1.862847e-02
   endloop
 endfacet
 facet normal  1.000000e+00  0.000000e+00  0.000000e+00
   outer loop
     vertex  2.000000e-01 -9.561767e-02 -6.129138e-02
     vertex  2.000000e-01 -9.725689e-02 -4.577301e-02
     vertex  2.000000e-01 -1.113758e-01 -5.674881e-02
   endloop
 endfacet
 facet normal  1.000000e+00  0.000000e+00  0.000000e+00
   outer loop
     vertex  2.000000e-01 -9.725689e-02 -4.577301e-02
     vertex  2.000000e-01 -1.108161e-01 -3.441537e-02
     vertex  2.000000e-01 -1.113758e-01 -5.674881e-02
   endloop
 endfacet
 facet normal  1.000000e+00  0.000000e+00  0.000000e+00
   outer loop
     vertex  2.000000e-01 -1.115658e-01 -1.544668e-02
     vertex  2.000000e-01 -1.108161e-01 -3.441537e-02
     vertex  2.000000e-01 -9.766373e-02 -2.708732e-02
   endloop
 endfacet
 facet normal  1.000000e+00  0.000000e+00  0.000000e+00
   outer loop
     vertex  2.000000e-01 -1.098735e-01 -2.934273e-06
     vertex  2.000000e-01 -1.115658e-01 -1.544668e-02
     vertex  2.000000e-01 -9.763673e-02 -8.848232e-03
   endloop
 endfacet
 facet normal  1.000000e+00  0.000000e+00 -0.000000e+00
   outer loop
     vertex  2.000000e-01 -9.766373e-02 -2.708732e-02
     vertex  2.000000e-01 -9.763673e-02 -8.848232e-03
     vertex  2.000000e-01 -1.115658e-01 -1.544668e-02
   endloop
 endfacet
 facet normal  1.000000e+00  0.000000e+00  0.000000e+00
   outer loop
     vertex  2.000000e-01 -9.725689e-02 -4.577301e-02
     vertex  2.000000e-01 -9.766373e-02 -2.708732e-02
     vertex  2.000000e-01 -1.108161e-01 -3.441537e-02
   endloop
 endfacet
 facet normal  1.000000e+00  0.000000e+00  0.000000e+00
   outer loop
     vertex  2.000000e-01 -8.253481e-02 -3.721995e-02
     vertex  2.000000e-01 -8.265389e-02 -1.862847e-02
     vertex  2.000000e-01 -9.766373e-02 -2.708732e-02
   endloop
 endfacet
 facet normal  1.000000e+00  0.000000e+00  0.000000e+00
   outer loop
     vertex  2.000000e-01 -8.242311e-02 -5.527113e-02
     vertex  2.000000e-01 -8.253481e-02 -3.721995e-02
     vertex  2.000000e-01 -9.725689e-02 -4.577301e-02
   endloop
 endfacet
 facet normal  1.000000e+00  0.000000e+00  0.000000e+00
   outer loop
     vertex  2.000000e-01 -9.766373e-02 -2.708732e-02
     vertex  2.000000e-01 -9.725689e-02 -4.577301e-02
     vertex  2.000000e-01 -8.253481e-02 -3.721995e-02
   endloop
 endfacet
 facet normal  1.000000e+00  0.000000e+00 -0.000000e+00
   outer loop
     vertex  2.000000e-01 -8.375919e-02 -7.193321e-02
     vertex  2.000000e-01 -8.242311e-02 -5.527113e-02
     vertex  2.000000e-01 -9.561767e-02 -6.129138e-02
   endloop
 endfacet
 facet normal  1.000000e+00  0.000000e+00 -0.000000e+00
   outer loop
     vertex  2.000000e-01 -8.838835e-02 -8.838835e-02
     vertex  2.000000e-01 -8.375919e-02 -7.193321e-02
     vertex  2.000000e-01 -1.011271e-01 -7.347316e-02
   endloop
 endfacet
 facet normal  1.000000e+00  0.000000e+00  0.000000e+00
   outer loop
     vertex  2.000000e-01 -9.561767e-02 -6.129138e-02
     vertex  2.000000e-01 -1.011271e-01 -7.347316e-02
     vertex  2.000000e-01 -8.375919e-02 -7.193321e-02
   endloop
 endfacet
 facet normal  1.000000e+00 -0.000000e+00  0.000000e+00
   outer loop
     vertex  2.000000e-01 -8.838835e-02 -8.838835e-02
     vertex  2.000000e-01 -7.347316e-02 -1.011271e-01
     vertex  2.000000e-01 -6.798920e-02 -8.520713e-02
   endloop
 endfacet
 facet normal  1.000000e+00  0.000000e+00 -0.000000e+00
   outer loop
     vertex  2.000000e-01 -6.695082e-02 -6.531679e-02
     vertex  2.000000e-01 -6.662259e-02 -4.676219e-02
     vertex  2.000000e-01 -8.242311e-02 -5.527113e-02
   endloop
 endfacet
 facet normal  1.000000e+00  0.000000e+00 -0.000000e+00
   outer loop
     vertex  2.000000e-01 -5.048980e-02 -5.632032e-02
     vertex  2.000000e-01 -5.042075e-02 -3.752812e-02
     vertex  2.000000e-01 -6.662259e-02 -4.676219e-02
   endloop
 endfacet
 facet normal  1.000000e+00  0.000000e+00 -0.000000e+00
   outer loop
     vertex  2.000000e-01 -5.068613e-02 -7.539701e-02
     vertex  2.000000e-01 -5.048980e-02 -5.632032e-02
     vertex  2.000000e-01 -6.695082e-02 -6.531679e-02
   endloop
 endfacet
 facet normal  1.000000e+00  0.000000e+00  0.000000e+00
   outer loop
     vertex  2.000000e-01 -6.662259e-02 -4.676219e-02
     vertex  2.000000e-01 -6.695082e-02 -6.531679e-02
     vertex  2.000000e-01 -5.048980e-02 -5.632032e-02
   endloop
 endfacet
 facet normal  1.000000e+00  0.000000e+00  0.000000e+00
   outer loop
     vertex  2.000000e-01 -5.046616e-02 -9.504957e-02
     vertex  2.000000e-01 -5.068613e-02 -7.539701e-02
     vertex  2.000000e-01 -6.798920e-02 -8.520713e-02
   endloop
 endfacet
 facet normal  1.000000e+00 -0.000000e+00  0.000000e+00
   outer loop
     vertex  2.000000e-01 -6.245673e-02 -9.854415e-02
     vertex  2.000000e-01 -5.674881e-02 -1.113758e-01
     vertex  2.000000e-01 -5.046616e-02 -9.504957e-02
   endloop
 endfacet
 facet normal  1.000000e+00  0.000000e+00  0.000000e+00
   outer loop
     vertex  2.000000e-01 -6.798920e-02 -8.520713e-02
     vertex  2.000000e-01 -6.245673e-02 -9.854415e-02
     vertex  2.000000e-01 -5.046616e-02 -9.504957e-02
   endloop
 endfacet
 facet normal  1.000000e+00  0.000000e+00  0.000000e+00
   outer loop
     vertex  2.000000e-01 -6.695082e-02 -6.531679e-02
     vertex  2.000000e-01 -6.798920e-02 -8.520713e-02
     vertex  2.000000e-01 -5.068613e-02 -7.539701e-02
   endloop
 endfacet
 facet normal  1.000000e+00  0.000000e+00  0.000000e+00
   outer loop
     vertex  2.000000e-01 -6.798920e-02 -8.520713e-02
     vertex  2.000000e-01 -8.375919e-02 -7.193321e-02
     vertex  2.000000e-01 -8.838835e-02 -8.838835e-02
   endloop
 endfacet
 facet normal  1.000000e+00  0.000000e+00  0.000000e+00
   outer loop
     vertex  2.000000e-01 -8.242311e-02 -5.527113e-02
     vertex  2.000000e-01 -8.375919e-02 -7.193321e-02
     vertex  2.000000e-01 -6.695082e-02 -6.531679e-02
   endloop
 endfacet
 facet normal  1.000000e+00  0.000000e+00 -0.000000e+00
   outer loop
     vertex  2.000000e-01 -6.798920e-02 -8.520713e-02
     vertex  2.000000e-01 -6.695082e-02 -6.531679e-02
     vertex  2.000000e-01 -8.375919e-02 -7.193321e-02
   endloop
 endfacet
 facet normal  1.000000e+00  0.000000e+00  0.000000e+00
   outer loop
     vertex  2.000000e-01 -1.966549e-03  8.423302e-02
     vertex  2.000000e-01 -1.705928e-03  6.567645e-02
     vertex  2.000000e-01  1.450531e-02  7.514511e-02
   endloop
 endfacet
 facet normal  1.000000e+00  0.000000e+00  0.000000e+00
   outer loop
     vertex  2.000000e-01 -1.801152e-02  7.500063e-02
     vertex  2.000000e-01 -1.792126e-02  5.630973e-02
     vertex  2.000000e-01 -1.705928e-03  6.567645e-02
   endloop
 endfacet
 facet normal  1.000000e+00  0.000000e+00  0.000000e+00
   outer loop
     vertex  2.000000e-01 -1.830632e-02  9.325973e-02
     vertex  2.000000e-01 -1.801152e-02  7.500063e-02
     vertex  2.000000e-01 -1.966549e-03  8.423302e-02
   endloop
 endfacet
 facet normal  1.000000e+00  0.000000e+00  0.000000e+00
   outer loop
     vertex  2.000000e-01 -1.705928e-03  6.567645e-02
     vertex  2.000000e-01 -1.966549e-03  8.423302e-02
     vertex  2.000000e-01 -1.801152e-02  7.500063e-02
   endloop
 endfacet
 facet normal  1.000000e+00  0.000000e+00  0.000000e+00
   outer loop
     vertex  2.000000e-01 -3.422720e-02  6.573520e-02
     vertex  2.000000e-01 -3.417508e-02  4.692556e-02
     vertex  2.000000e-01 -1.792126e-02  5.630973e-02
   endloop
 endfacet
 facet normal  1.000000e+00  0.000000e+00  0.000000e+00
   outer loop
     vertex  2.000000e-01 -5.048598e-02  5.631949e-02
     vertex  2.000000e-01 -5.042014e-02  3.752736e-02
     vertex  2.000000e-01 -3.417508e-02  4.692556e-02
   endloop
 endfacet
 facet normal  1.000000e+00  0.000000e+00  0.000000e+00
   outer loop
     vertex  2.000000e-01 -5.068412e-02  7.539576e-02
     vertex  2.000000e-01 -5.048598e-02  5.631949e-02
     vertex  2.000000e-01 -3.422720e-02  6.573520e-02
   endloop
 endfacet
 facet normal  1.000000e+00  0.000000e+00  0.000000e+00
   outer loop
     vertex  2.000000e-01 -3.417508e-02  4.692556e-02
     vertex  2.000000e-01 -3.422720e-02  6.573520e-02
     vertex  2.000000e-01 -5.048598e-02  5.631949e-02
   endloop
 endfacet
 facet normal  1.000000e+00  0.000000e+00  0.000000e+00
   outer loop
     vertex  2.000000e-01 -3.446823e-02  1.018415e-01
     vertex  2.000000e-01 -3.433524e-02  8.445778e-02
     vertex  2.000000e-01 -1.830632e-02  9.325973e-02
   endloop
 endfacet
 facet normal  1.000000e+00  0.000000e+00  0.000000e+00
   outer loop
     vertex  2.000000e-01 -5.046653e-02  9.504976e-02
     vertex  2.000000e-01 -5.068412e-02  7.539576e-02
     vertex  2.000000e-01 -3.433524e-02  8.445778e-02
   endloop
 endfacet
 facet normal  1.000000e+00  0.000000e+00  0.000000e+00
   outer loop
     vertex  2.000000e-01 -4.548536e-02  1.073093e-01
     vertex  2.000000e-01 -5.046653e-02  9.504976e-02
     vertex  2.000000e-01 -3.446823e-02  1.018415e-01
   endloop
 endfacet
 facet normal  1.000000e+00  0.000000e+00  0.000000e+00
   outer loop
     vertex  2.000000e-01 -3.433524e-02  8.445778e-02
     vertex  2.000000e-01 -3.446823e-02  1.018415e-01
     vertex  2.000000e-01 -5.046653e-02  9.504976e-02
   endloop
 endfacet
 facet normal  1.000000e+00  0.000000e+00  0.000000e+00
   outer loop
     vertex  2.000000e-01 -3.422720e-02  6.573520e-02
     vertex  2.000000e-01 -3.433524e-02  8.445778e-02
     vertex  2.000000e-01 -5.068412e-02  7.539576e-02
   endloop
 endfacet
 facet normal  1.000000e+00  0.000000e+00  0.000000e+00
   outer loop
     vertex  2.000000e-01 -1.801152e-02  7.500063e-02
     vertex  2.000000e-01 -1.830632e-02  9.325973e-02
     vertex  2.000000e-01 -3.433524e-02  8.445778e-02
   endloop
 endfacet
 facet normal  1.000000e+00  0.000000e+00  0.000000e+00
   outer loop
     vertex  2.000000e-01 -1.792126e-02  5.630973e-02
     vertex  2.000000e-01 -1.801152e-02  7.500063e-02
     vertex  2.000000e-01 -3.422720e-02  6.573520e-02
   endloop
 endfacet
 facet normal  1.000000e+00  0.000000e+00  0.000000e+00
   outer loop
     vertex  2.000000e-01 -3.433524e-02  8.445778e-02
     vertex  2.000000e-01 -3.422720e-02  6.573520e-02
     vertex  2.000000e-01 -1.801152e-02  7.500063e-02
   endloop
 endfacet
 facet normal  1.000000e+00  0.000000e+00  0.000000e+00
   outer loop
     vertex  2.000000e-01 -6.661565e-02  4.675647e-02
     vertex  2.000000e-01 -6.661115e-02  2.810798e-02
     vertex  2.000000e-01 -5.042014e-02  3.752736e-02
   endloop
 endfacet
 facet normal  1.000000e+00  0.000000e+00  0.000000e+00
   outer loop
     vertex  2.000000e-01 -8.252957e-02  3.721068e-02
     vertex  2.000000e-01 -8.265187e-02  1.862418e-02
     vertex  2.000000e-01 -6.661115e-02  2.810798e-02
   endloop
 endfacet
 facet normal  1.000000e+00  0.000000e+00  0.000000e+00
   outer loop
     vertex  2.000000e-01 -8.242041e-02  5.526435e-02
     vertex  2.000000e-01 -8.252957e-02  3.721068e-02
     vertex  2.000000e-01 -6.661565e-02  4.675647e-02
   endloop
 endfacet
 facet normal  1.000000e+00  0.000000e+00  0.000000e+00
   outer loop
     vertex  2.000000e-01 -6.661115e-02  2.810798e-02
     vertex  2.000000e-01 -6.661565e-02  4.675647e-02
     vertex  2.000000e-01 -8.252957e-02  3.721068e-02
   endloop
 endfacet
 facet normal  1.000000e+00  0.000000e+00  0.000000e+00
   outer loop
     vertex  2.000000e-01 -9.764495e-02  2.710931e-02
     vertex  2.000000e-01 -9.763292e-02  8.912359e-03
     vertex  2.000000e-01 -8.265187e-02  1.862418e-02
   endloop
 endfacet
 facet normal  1.000000e+00  0.000000e+00  0.000000e+00
   outer loop
     vertex  2.000000e-01 -1.115640e-01  1.544132e-02
     vertex  2.000000e-01 -1.098735e-01 -2.934273e-06
     vertex  2.000000e-01 -9.763292e-02  8.912359e-03
   endloop
 endfacet
 facet normal  1.000000e+00  0.000000e+00  0.000000e+00
   outer loop
     vertex  2.000000e-01 -1.108119e-01  3.440689e-02
     vertex  2.000000e-01 -1.115640e-01  1.544132e-02
     vertex  2.000000e-01 -9.764495e-02  2.710931e-02
   endloop
 endfacet
 facet normal  1.000000e+00  0.000000e+00  0.000000e+00
   outer loop
     vertex  2.000000e-01 -9.763292e-02  8.912359e-03
     vertex  2.000000e-01 -9.764495e-02  2.710931e-02
     vertex  2.000000e-01 -1.115640e-01  1.544132e-02
   endloop
 endfacet
 facet normal  1.000000e+00  0.000000e+00  0.000000e+00
   outer loop
     vertex  2.000000e-01 -9.555137e-02  6.123398e-02
     vertex  2.000000e-01 -9.722434e-02  4.577352e-02
     vertex  2.000000e-01 -8.242041e-02  5.526435e-02
   endloop
 endfacet
 facet normal  1.000000e+00  0.000000e+00  0.000000e+00
   outer loop
     vertex  2.000000e-01 -9.722434e-02  4.577352e-02
     vertex  2.000000e-01 -1.113758e-01  5.674881e-02
     vertex  2.000000e-01 -1.108119e-01  3.440689e-02
   endloop
 endfacet
 facet normal  1.000000e+00  0.000000e+00 -0.000000e+00
   outer loop
     vertex  2.000000e-01 -9.764495e-02  2.710931e-02
     vertex  2.000000e-01 -9.722434e-02  4.577352e-02
     vertex  2.000000e-01 -1.108119e-01  3.440689e-02
   endloop
 endfacet
 facet normal  1.000000e+00  0.000000e+00 -0.000000e+00
   outer loop
     vertex  2.000000e-01 -9.722434e-02  4.577352e-02
     vertex  2.000000e-01 -9.555137e-02  6.123398e-02
     vertex  2.000000e-01 -1.113758e-01  5.674881e-02
   endloop
 endfacet
 facet normal  1.000000e+00 -0.000000e+00  0.000000e+00
   outer loop
     vertex  2.000000e-01 -1.188821e-01  3.862712e-02
     vertex  2.000000e-01 -1.108119e-01  3.440689e-02
     vertex  2.000000e-01 -1.113758e-01  5.674881e-02
   endloop
 endfacet
 facet normal  1.000000e+00  0.000000e+00 -0.000000e+00
   outer loop
     vertex  2.000000e-01 -8.252957e-02  3.721068e-02
     vertex  2.000000e-01 -8.242041e-02  5.526435e-02
     vertex  2.000000e-01 -9.722434e-02  4.577352e-02
   endloop
 endfacet
 facet normal  1.000000e+00  0.000000e+00 -0.000000e+00
   outer loop
     vertex  2.000000e-01 -8.265187e-02  1.862418e-02
     vertex  2.000000e-01 -8.252957e-02  3.721068e-02
     vertex  2.000000e-01 -9.764495e-02  2.710931e-02
   endloop
 endfacet
 facet normal  1.000000e+00  0.000000e+00  0.000000e+00
   outer loop
     vertex  2.000000e-01 -9.722434e-02  4.577352e-02
     vertex  2.000000e-01 -9.764495e-02  2.710931e-02
     vertex  2.000000e-01 -8.252957e-02  3.721068e-02
   endloop
 endfacet
 facet normal  1.000000e+00 -0.000000e+00  0.000000e+00
   outer loop
     vertex  2.000000e-01 -7.347316e-02  1.011271e-01
     vertex  2.000000e-01 -6.245753e-02  9.854379e-02
     vertex  2.000000e-01 -5.674881e-02  1.113758e-01
   endloop
 endfacet
 facet normal  1.000000e+00 -0.000000e+00  0.000000e+00
   outer loop
     vertex  2.000000e-01 -6.245753e-02  9.854379e-02
     vertex  2.000000e-01 -5.046653e-02  9.504976e-02
     vertex  2.000000e-01 -5.674881e-02  1.113758e-01
   endloop
 endfacet
 facet normal  1.000000e+00  0.000000e+00  0.000000e+00
   outer loop
     vertex  2.000000e-01 -6.798394e-02  8.522320e-02
     vertex  2.000000e-01 -7.347316e-02  1.011271e-01
     vertex  2.000000e-01 -8.838835e-02  8.838835e-02
   endloop
 endfacet
 facet normal  1.000000e+00  0.000000e+00  0.000000e+00
   outer loop
     vertex  2.000000e-01 -8.242041e-02  5.526435e-02
     vertex  2.000000e-01 -8.374900e-02  7.192418e-02
     vertex  2.000000e-01 -9.555137e-02  6.123398e-02
   endloop
 endfacet
 facet normal  1.000000e+00  0.000000e+00 -0.000000e+00
   outer loop
     vertex  2.000000e-01 -9.555137e-02  6.123398e-02
     vertex  2.000000e-01 -8.374900e-02  7.192418e-02
     vertex  2.000000e-01 -1.011271e-01  7.347316e-02
   endloop
 endfacet
 facet normal  1.000000e+00  0.000000e+00  0.000000e+00
   outer loop
     vertex  2.000000e-01 -1.113758e-01  5.674881e-02
     vertex  2.000000e-01 -9.555137e-02  6.123398e-02
     vertex  2.000000e-01 -1.011271e-01  7.347316e-02
   endloop
 endfacet
 facet normal  1.000000e+00 -0.000000e+00  0.000000e+00
   outer loop
     vertex  2.000000e-01 -1.011271e-01  7.347316e-02
     vertex  2.000000e-01 -8.374900e-02  7.192418e-02
     vertex  2.000000e-01 -8.838835e-02  8.838835e-02
   endloop
 endfacet
 facet normal  1.000000e+00  0.000000e+00  0.000000e+00
   outer loop
     vertex  2.000000e-01 -6.245753e-02  9.854379e-02
     vertex  2.000000e-01 -7.347316e-02  1.011271e-01
     vertex  2.000000e-01 -6.798394e-02  8.522320e-02
   endloop
 endfacet
 facet normal  1.000000e+00  0.000000e+00  0.000000e+00
   outer loop
     vertex  2.000000e-01 -4.548536e-02  1.073093e-01
     vertex  2.000000e-01 -5.674881e-02  1.113758e-01
     vertex  2.000000e-01 -5.046653e-02  9.504976e-02
   endloop
 endfacet
 facet normal  1.000000e+00  0.000000e+00 -0.000000e+00
   outer loop
     vertex  2.000000e-01 -5.068412e-02  7.539576e-02
     vertex  2.000000e-01 -5.046653e-02  9.504976e-02
     vertex  2.000000e-01 -6.798394e-02  8.522320e-02
   endloop
 endfacet
 facet normal  1.000000e+00  0.000000e+00  0.000000e+00
   outer loop
     vertex  2.000000e-01 -6.245753e-02  9.854379e-02
     vertex  2.000000e-01 -6.798394e-02  8.522320e-02
     vertex  2.000000e-01 -5.046653e-02  9.504976e-02
   endloop
 endfacet
 facet normal  1.000000e+00  0.000000e+00  0.000000e+00
   outer loop
     vertex  2.000000e-01 -6.661565e-02  4.675647e-02
     vertex  2.000000e-01 -6.694755e-02  6.529791e-02
     vertex  2.000000e-01 -8.242041e-02  5.526435e-02
   endloop
 endfacet
 facet normal  1.000000e+00  0.000000e+00  0.000000e+00
   outer loop
     vertex  2.000000e-01 -5.048598e-02  5.631949e-02
     vertex  2.000000e-01 -5.068412e-02  7.539576e-02
     vertex  2.000000e-01 -6.694755e-02  6.529791e-02
   endloop
 endfacet
 facet normal  1.000000e+00  0.000000e+00  0.000000e+00
   outer loop
     vertex  2.000000e-01 -5.042014e-02  3.752736e-02
     vertex  2.000000e-01 -5.048598e-02  5.631949e-02
     vertex  2.000000e-01 -6.661565e-02  4.675647e-02
   endloop
 endfacet
 facet normal  1.000000e+00  0.000000e+00  0.000000e+00
   outer loop
     vertex  2.000000e-01 -6.694755e-02  6.529791e-02
     vertex  2.000000e-01 -6.661565e-02  4.675647e-02
     vertex  2.000000e-01 -5.048598e-02  5.631949e-02
   endloop
 endfacet
 facet normal  1.000000e+00  0.000000e+00  0.000000e+00
   outer loop
     vertex  2.000000e-01 -6.798394e-02  8.522320e-02
     vertex  2.000000e-01 -6.694755e-02  6.529791e-02
     vertex  2.000000e-01 -5.068412e-02  7.539576e-02
   endloop
 endfacet
 facet normal  1.000000e+00  0.000000e+00  0.000000e+00
   outer loop
     vertex  2.000000e-01 -8.374900e-02  7.192418e-02
     vertex  2.000000e-01 -8.242041e-02  5.526435e-02
     vertex  2.000000e-01 -6.694755e-02  6.529791e-02
   endloop
 endfacet
 facet normal  1.000000e+00  0.000000e+00  0.000000e+00
   outer loop
     vertex  2.000000e-01 -8.838835e-02  8.838835e-02
     vertex  2.000000e-01 -8.374900e-02  7.192418e-02
     vertex  2.000000e-01 -6.798394e-02  8.522320e-02
   endloop
 endfacet
 facet normal  1.000000e+00  0.000000e+00  0.000000e+00
   outer loop
     vertex  2.000000e-01 -6.694755e-02  6.529791e-02
     vertex  2.000000e-01 -6.798394e-02  8.522320e-02
     vertex  2.000000e-01 -8.374900e-02  7.192418e-02
   endloop
 endfacet
 facet normal  1.000000e+00  0.000000e+00 -0.000000e+00
   outer loop
     vertex  2.000000e-01 -9.763673e-02 -8.848232e-03
     vertex  2.000000e-01 -9.763292e-02  8.912359e-03
     vertex  2.000000e-01 -1.098735e-01 -2.934273e-06
   endloop
 endfacet
 facet normal  1.000000e+00  0.000000e+00  0.000000e+00
   outer loop
     vertex  2.000000e-01 -8.251294e-02  7.258084e-06
     vertex  2.000000e-01 -8.265187e-02  1.862418e-02
     vertex  2.000000e-01 -9.763292e-02  8.912359e-03
   endloop
 endfacet
 facet normal  1.000000e+00  0.000000e+00 -0.000000e+00
   outer loop
     vertex  2.000000e-01 -8.265389e-02 -1.862847e-02
     vertex  2.000000e-01 -8.251294e-02  7.258084e-06
     vertex  2.000000e-01 -9.763673e-02 -8.848232e-03
   endloop
 endfacet
 facet normal  1.000000e+00  0.000000e+00  0.000000e+00
   outer loop
     vertex  2.000000e-01 -9.763292e-02  8.912359e-03
     vertex  2.000000e-01 -9.763673e-02 -8.848232e-03
     vertex  2.000000e-01 -8.251294e-02  7.258084e-06
   endloop
 endfacet
 facet normal  1.000000e+00  0.000000e+00  0.000000e+00
   outer loop
     vertex  2.000000e-01 -6.659260e-02  9.365815e-03
     vertex  2.000000e-01 -6.661115e-02  2.810798e-02
     vertex  2.000000e-01 -8.265187e-02  1.862418e-02
   endloop
 endfacet
 facet normal  1.000000e+00  0.000000e+00  0.000000e+00
   outer loop
     vertex  2.000000e-01 -5.040541e-02  1.876153e-02
     vertex  2.000000e-01 -5.042014e-02  3.752736e-02
     vertex  2.000000e-01 -6.661115e-02  2.810798e-02
   endloop
 endfacet
 facet normal  1.000000e+00  0.000000e+00 -0.000000e+00
   outer loop
     vertex  2.000000e-01 -5.041734e-02  9.145618e-08
     vertex  2.000000e-01 -5.040541e-02  1.876153e-02
     vertex  2.000000e-01 -6.659260e-02  9.365815e-03
   endloop
 endfacet
 facet normal  1.000000e+00  0.000000e+00  0.000000e+00
   outer loop
     vertex  2.000000e-01 -6.661115e-02  2.810798e-02
     vertex  2.000000e-01 -6.659260e-02  9.365815e-03
     vertex  2.000000e-01 -5.040541e-02  1.876153e-02
   endloop
 endfacet
 facet normal  1.000000e+00  0.000000e+00 -0.000000e+00
   outer loop
     vertex  2.000000e-01 -6.660875e-02 -2.810079e-02
     vertex  2.000000e-01 -6.658567e-02 -9.365491e-03
     vertex  2.000000e-01 -8.265389e-02 -1.862847e-02
   endloop
 endfacet
 facet normal  1.000000e+00  0.000000e+00  0.000000e+00
   outer loop
     vertex  2.000000e-01 -5.040453e-02 -1.876080e-02
     vertex  2.000000e-01 -5.041734e-02  9.145618e-08
     vertex  2.000000e-01 -6.658567e-02 -9.365491e-03
   endloop
 endfacet
 facet normal  1.000000e+00  0.000000e+00 -0.000000e+00
   outer loop
     vertex  2.000000e-01 -5.042075e-02 -3.752812e-02
     vertex  2.000000e-01 -5.040453e-02 -1.876080e-02
     vertex  2.000000e-01 -6.660875e-02 -2.810079e-02
   endloop
 endfacet
 facet normal  1.000000e+00  0.000000e+00  0.000000e+00
   outer loop
     vertex  2.000000e-01 -6.658567e-02 -9.365491e-03
     vertex  2.000000e-01 -6.660875e-02 -2.810079e-02
     vertex  2.000000e-01 -5.040453e-02 -1.876080e-02
   endloop
 endfacet
 facet normal  1.000000e+00  0.000000e+00  0.000000e+00
   outer loop
     vertex  2.000000e-01 -6.659260e-02  9.365815e-03
     vertex  2.000000e-01 -6.658567e-02 -9.365491e-03
     vertex  2.000000e-01 -5.041734e-02  9.145618e-08
   endloop
 endfacet
 facet normal  1.000000e+00  0.000000e+00  0.000000e+00
   outer loop
     vertex  2.000000e-01 -8.251294e-02  7.258084e-06
     vertex  2.000000e-01 -8.265389e-02 -1.862847e-02
     vertex  2.000000e-01 -6.658567e-02 -9.365491e-03
   endloop
 endfacet
 facet normal  1.000000e+00  0.000000e+00  0.000000e+00
   outer loop
     vertex  2.000000e-01 -8.265187e-02  1.862418e-02
     vertex  2.000000e-01 -8.251294e-02  7.258084e-06
     vertex  2.000000e-01 -6.659260e-02  9.365815e-03
   endloop
 endfacet
 facet normal  1.000000e+00  0.000000e+00  0.000000e+00
   outer loop
     vertex  2.000000e-01 -6.658567e-02 -9.365491e-03
     vertex  2.000000e-01 -6.659260e-02  9.365815e-03
     vertex  2.000000e-01 -8.251294e-02  7.258084e-06
   endloop
 endfacet
 facet normal  1.000000e+00  0.000000e+00  0.000000e+00
   outer loop
     vertex  2.000000e-01 -3.416575e-02  2.815226e-02
     vertex  2.000000e-01 -3.417508e-02  4.692556e-02
     vertex  2.000000e-01 -5.042014e-02  3.752736e-02
   endloop
 endfacet
 facet normal  1.000000e+00  0.000000e+00  0.000000e+00
   outer loop
     vertex  2.000000e-01 -1.791373e-02  3.753888e-02
     vertex  2.000000e-01 -1.792126e-02  5.630973e-02
     vertex  2.000000e-01 -3.417508e-02  4.692556e-02
   endloop
 endfacet
 facet normal  1.000000e+00  0.000000e+00  0.000000e+00
   outer loop
     vertex  2.000000e-01 -1.791193e-02  1.876930e-02
     vertex  2.000000e-01 -1.791373e-02  3.753888e-02
     vertex  2.000000e-01 -3.416575e-02  2.815226e-02
   endloop
 endfacet
 facet normal  1.000000e+00  0.000000e+00  0.000000e+00
   outer loop
     vertex  2.000000e-01 -3.417508e-02  4.692556e-02
     vertex  2.000000e-01 -3.416575e-02  2.815226e-02
     vertex  2.000000e-01 -1.791373e-02  3.753888e-02
   endloop
 endfacet
 facet normal  1.000000e+00  0.000000e+00  0.000000e+00
   outer loop
     vertex  2.000000e-01 -1.664224e-03  4.692449e-02
     vertex  2.000000e-01 -1.705928e-03  6.567645e-02
     vertex  2.000000e-01 -1.792126e-02  5.630973e-02
   endloop
 endfacet
 facet normal  1.000000e+00  0.000000e+00  0.000000e+00
   outer loop
     vertex  2.000000e-01  1.458957e-02  5.633229e-02
     vertex  2.000000e-01  1.450531e-02  7.514511e-02
     vertex  2.000000e-01 -1.705928e-03  6.567645e-02
   endloop
 endfacet
 facet normal  1.000000e+00  0.000000e+00  0.000000e+00
   outer loop
     vertex  2.000000e-01  1.459755e-02  3.753994e-02
     vertex  2.000000e-01  1.458957e-02  5.633229e-02
     vertex  2.000000e-01 -1.664224e-03  4.692449e-02
   endloop
 endfacet
 facet normal  1.000000e+00  0.000000e+00  0.000000e+00
   outer loop
     vertex  2.000000e-01 -1.705928e-03  6.567645e-02
     vertex  2.000000e-01 -1.664224e-03  4.692449e-02
     vertex  2.000000e-01  1.458957e-02  5.633229e-02
   endloop
 endfacet
 facet normal  1.000000e+00  0.000000e+00  0.000000e+00
   outer loop
     vertex  2.000000e-01 -1.657333e-03  9.384709e-03
     vertex  2.000000e-01 -1.658127e-03  2.815427e-02
     vertex  2.000000e-01 -1.791193e-02  1.876930e-02
   endloop
 endfacet
 facet normal  1.000000e+00  0.000000e+00 -0.000000e+00
   outer loop
     vertex  2.000000e-01  1.459745e-02  1.876957e-02
     vertex  2.000000e-01  1.459755e-02  3.753994e-02
     vertex  2.000000e-01 -1.658127e-03  2.815427e-02
   endloop
 endfacet
 facet normal  1.000000e+00  0.000000e+00 -0.000000e+00
   outer loop
     vertex  2.000000e-01  1.459742e-02  3.898024e-09
     vertex  2.000000e-01  1.459745e-02  1.876957e-02
     vertex  2.000000e-01 -1.657333e-03  9.384709e-03
   endloop
 endfacet
 facet normal  1.000000e+00  0.000000e+00  0.000000e+00
   outer loop
     vertex  2.000000e-01 -1.658127e-03  2.815427e-02
     vertex  2.000000e-01 -1.657333e-03  9.384709e-03
     vertex  2.000000e-01  1.459745e-02  1.876957e-02
   endloop
 endfacet
 facet normal  1.000000e+00  0.000000e+00  0.000000e+00
   outer loop
     vertex  2.000000e-01 -1.664224e-03  4.692449e-02
     vertex  2.000000e-01 -1.658127e-03  2.815427e-02
     vertex  2.000000e-01  1.459755e-02  3.753994e-02
   endloop
 endfacet
 facet normal  1.000000e+00  0.000000e+00  0.000000e+00
   outer loop
     vertex  2.000000e-01 -1.791373e-02  3.753888e-02
     vertex  2.000000e-01 -1.791193e-02  1.876930e-02
     vertex  2.000000e-01 -1.658127e-03  2.815427e-02
   endloop
 endfacet
 facet normal  1.000000e+00  0.000000e+00  0.000000e+00
   outer loop
     vertex  2.000000e-01 -1.792126e-02  5.630973e-02
     vertex  2.000000e-01 -1.791373e-02  3.753888e-02
     vertex  2.000000e-01 -1.664224e-03  4.692449e-02
   endloop
 endfacet
 facet normal  1.000000e+00  0.000000e+00  0.000000e+00
   outer loop
     vertex  2.000000e-01 -1.658127e-03  2.815427e-02
     vertex  2.000000e-01 -1.664224e-03  4.692449e-02
     vertex  2.000000e-01 -1.791373e-02  3.753888e-02
   endloop
 endfacet
 facet normal  1.000000e+00  0.000000e+00 -0.000000e+00
   outer loop
     vertex  2.000000e-01 -3.417932e-02 -4.692633e-02
     vertex  2.000000e-01 -3.416620e-02 -2.815238e-02
     vertex  2.000000e-01 -5.042075e-02 -3.752812e-02
   endloop
 endfacet
 facet normal  1.000000e+00  0.000000e+00 -0.000000e+00
   outer loop
     vertex  2.000000e-01 -1.791414e-02 -3.753898e-02
     vertex  2.000000e-01 -1.791196e-02 -1.876932e-02
     vertex  2.000000e-01 -3.416620e-02 -2.815238e-02
   endloop
 endfacet
 facet normal  1.000000e+00  0.000000e+00 -0.000000e+00
   outer loop
     vertex  2.000000e-01 -1.792046e-02 -5.630965e-02
     vertex  2.000000e-01 -1.791414e-02 -3.753898e-02
     vertex  2.000000e-01 -3.417932e-02 -4.692633e-02
   endloop
 endfacet
 facet normal  1.000000e+00  0.000000e+00  0.000000e+00
   outer loop
     vertex  2.000000e-01 -3.416620e-02 -2.815238e-02
     vertex  2.000000e-01 -3.417932e-02 -4.692633e-02
     vertex  2.000000e-01 -1.791414e-02 -3.753898e-02
   endloop
 endfacet
 facet normal  1.000000e+00  0.000000e+00 -0.000000e+00
   outer loop
     vertex  2.000000e-01 -1.657547e-03 -2.815410e-02
     vertex  2.000000e-01 -1.657261e-03 -9.384677e-03
     vertex  2.000000e-01 -1.791196e-02 -1.876932e-02
   endloop
 endfacet
 facet normal  1.000000e+00  0.000000e+00  0.000000e+00
   outer loop
     vertex  2.000000e-01  1.459745e-02 -1.876960e-02
     vertex  2.000000e-01  1.459742e-02  3.898024e-09
     vertex  2.000000e-01 -1.657261e-03 -9.384677e-03
   endloop
 endfacet
 facet normal  1.000000e+00  0.000000e+00 -0.000000e+00
   outer loop
     vertex  2.000000e-01  1.459730e-02 -3.753925e-02
     vertex  2.000000e-01  1.459745e-02 -1.876960e-02
     vertex  2.000000e-01 -1.657547e-03 -2.815410e-02
   endloop
 endfacet
 facet normal  1.000000e+00  0.000000e+00  0.000000e+00
   outer loop
     vertex  2.000000e-01 -1.657261e-03 -9.384677e-03
     vertex  2.000000e-01 -1.657547e-03 -2.815410e-02
     vertex  2.000000e-01  1.459745e-02 -1.876960e-02
   endloop
 endfacet
 facet normal  1.000000e+00  0.000000e+00 -0.000000e+00
   outer loop
     vertex  2.000000e-01 -1.700322e-03 -6.568064e-02
     vertex  2.000000e-01 -1.663764e-03 -4.692428e-02
     vertex  2.000000e-01 -1.792046e-02 -5.630965e-02
   endloop
 endfacet
 facet normal  1.000000e+00  0.000000e+00 -0.000000e+00
   outer loop
     vertex  2.000000e-01  1.458829e-02 -5.632676e-02
     vertex  2.000000e-01  1.459730e-02 -3.753925e-02
     vertex  2.000000e-01 -1.663764e-03 -4.692428e-02
   endloop
 endfacet
 facet normal  1.000000e+00  0.000000e+00 -0.000000e+00
   outer loop
     vertex  2.000000e-01  1.449701e-02 -7.513344e-02
     vertex  2.000000e-01  1.458829e-02 -5.632676e-02
     vertex  2.000000e-01 -1.700322e-03 -6.568064e-02
   endloop
 endfacet
 facet normal  1.000000e+00  0.000000e+00  0.000000e+00
   outer loop
     vertex  2.000000e-01 -1.663764e-03 -4.692428e-02
     vertex  2.000000e-01 -1.700322e-03 -6.568064e-02
     vertex  2.000000e-01  1.458829e-02 -5.632676e-02
   endloop
 endfacet
 facet normal  1.000000e+00  0.000000e+00  0.000000e+00
   outer loop
     vertex  2.000000e-01 -1.657547e-03 -2.815410e-02
     vertex  2.000000e-01 -1.663764e-03 -4.692428e-02
     vertex  2.000000e-01  1.459730e-02 -3.753925e-02
   endloop
 endfacet
 facet normal  1.000000e+00  0.000000e+00  0.000000e+00
   outer loop
     vertex  2.000000e-01 -1.791414e-02 -3.753898e-02
     vertex  2.000000e-01 -1.792046e-02 -5.630965e-02
     vertex  2.000000e-01 -1.663764e-03 -4.692428e-02
   endloop
 endfacet
 facet normal  1.000000e+00  0.000000e+00  0.000000e+00
   outer loop
     vertex  2.000000e-01 -1.791196e-02 -1.876932e-02
     vertex  2.000000e-01 -1.791414e-02 -3.753898e-02
     vertex  2.000000e-01 -1.657547e-03 -2.815410e-02
   endloop
 endfacet
 facet normal  1.000000e+00  0.000000e+00 -0.000000e+00
   outer loop
     vertex  2.000000e-01 -1.663764e-03 -4.692428e-02
     vertex  2.000000e-01 -1.657547e-03 -2.815410e-02
     vertex  2.000000e-01 -1.791414e-02 -3.753898e-02
   endloop
 endfacet
 facet normal  1.000000e+00  0.000000e+00  0.000000e+00
   outer loop
     vertex  2.000000e-01 -1.657333e-03  9.384709e-03
     vertex  2.000000e-01 -1.657261e-03 -9.384677e-03
     vertex  2.000000e-01  1.459742e-02  3.898024e-09
   endloop
 endfacet
 facet normal  1.000000e+00  0.000000e+00  0.000000e+00
   outer loop
     vertex  2.000000e-01 -1.791192e-02  1.722138e-09
     vertex  2.000000e-01 -1.791196e-02 -1.876932e-02
     vertex  2.000000e-01 -1.657261e-03 -9.384677e-03
   endloop
 endfacet
 facet normal  1.000000e+00  0.000000e+00  0.000000e+00
   outer loop
     vertex  2.000000e-01 -1.791193e-02  1.876930e-02
     vertex  2.000000e-01 -1.791192e-02  1.722138e-09
     vertex  2.000000e-01 -1.657333e-03  9.384709e-03
   endloop
 endfacet
 facet normal  1.000000e+00  0.000000e+00  0.000000e+00
   outer loop
     vertex  2.000000e-01 -1.657261e-03 -9.384677e-03
     vertex  2.000000e-01 -1.657333e-03  9.384709e-03
     vertex  2.000000e-01 -1.791192e-02  1.722138e-09
   endloop
 endfacet
 facet normal  1.000000e+00  0.000000e+00  0.000000e+00
   outer loop
     vertex  2.000000e-01 -3.416445e-02 -9.383625e-03
     vertex  2.000000e-01 -3.416620e-02 -2.815238e-02
     vertex  2.000000e-01 -1.791196e-02 -1.876932e-02
   endloop
 endfacet
 facet normal  1.000000e+00  0.000000e+00  0.000000e+00
   outer loop
     vertex  2.000000e-01 -5.040453e-02 -1.876080e-02
     vertex  2.000000e-01 -5.042075e-02 -3.752812e-02
     vertex  2.000000e-01 -3.416620e-02 -2.815238e-02
   endloop
 endfacet
 facet normal  1.000000e+00  0.000000e+00  0.000000e+00
   outer loop
     vertex  2.000000e-01 -5.041734e-02  9.145618e-08
     vertex  2.000000e-01 -5.040453e-02 -1.876080e-02
     vertex  2.000000e-01 -3.416445e-02 -9.383625e-03
   endloop
 endfacet
 facet normal  1.000000e+00  0.000000e+00 -0.000000e+00
   outer loop
     vertex  2.000000e-01 -3.416620e-02 -2.815238e-02
     vertex  2.000000e-01 -3.416445e-02 -9.383625e-03
     vertex  2.000000e-01 -5.040453e-02 -1.876080e-02
   endloop
 endfacet
 facet normal  1.000000e+00  0.000000e+00  0.000000e+00
   outer loop
     vertex  2.000000e-01 -3.416575e-02  2.815226e-02
     vertex  2.000000e-01 -3.416429e-02  9.383805e-03
     vertex  2.000000e-01 -1.791193e-02  1.876930e-02
   endloop
 endfacet
 facet normal  1.000000e+00  0.000000e+00  0.000000e+00
   outer loop
     vertex  2.000000e-01 -5.040541e-02  1.876153e-02
     vertex  2.000000e-01 -5.041734e-02  9.145618e-08
     vertex  2.000000e-01 -3.416429e-02  9.383805e-03
   endloop
 endfacet
 facet normal  1.000000e+00  0.000000e+00  0.000000e+00
   outer loop
     vertex  2.000000e-01 -5.042014e-02  3.752736e-02
     vertex  2.000000e-01 -5.040541e-02  1.876153e-02
     vertex  2.000000e-01 -3.416575e-02  2.815226e-02
   endloop
 endfacet
 facet normal  1.000000e+00  0.000000e+00  0.000000e+00
   outer loop
     vertex  2.000000e-01 -3.416429e-02  9.383805e-03
     vertex  2.000000e-01 -3.416575e-02  2.815226e-02
     vertex  2.000000e-01 -5.040541e-02  1.876153e-02
   endloop
 endfacet
 facet normal  1.000000e+00  0.000000e+00 -0.000000e+00
   outer loop
     vertex  2.000000e-01 -3.416445e-02 -9.383625e-03
     vertex  2.000000e-01 -3.416429e-02  9.383805e-03
     vertex  2.000000e-01 -5.041734e-02  9.145618e-08
   endloop
 endfacet
 facet normal  1.000000e+00  0.000000e+00  0.000000e+00
   outer loop
     vertex  2.000000e-01 -1.791192e-02  1.722138e-09
     vertex  2.000000e-01 -1.791193e-02  1.876930e-02
     vertex  2.000000e-01 -3.416429e-02  9.383805e-03
   endloop
 endfacet
 facet normal  1.000000e+00  0.000000e+00 -0.000000e+00
   outer loop
     vertex  2.000000e-01 -1.791196e-02 -1.876932e-02
     vertex  2.000000e-01 -1.791192e-02  1.722138e-09
     vertex  2.000000e-01 -3.416445e-02 -9.383625e-03
   endloop
 endfacet
 facet normal  1.000000e+00  0.000000e+00  0.000000e+00
   outer loop
     vertex  2.000000e-01 -3.416429e-02  9.383805e-03
     vertex  2.000000e-01 -3.416445e-02 -9.383625e-03
     vertex  2.000000e-01 -1.791192e-02  1.722138e-09
   endloop
 endfacet
endsolid interface_moving_inlet
